﻿"Symbol";"Value";"Unit";
"Brand_Name";"TE CONNECTIVITY / AMP";"";
"Connector_Mounting_Orientation";"PC Board";"";
"TraceParts.PartLanguage";"en";"";
"Length";"17mm";"";
"No__of_Positions";"8Ways";"";
"Contact_Termination_Type";"Through Hole";"";
"Gender";"Receptacle";"";
"Housing_Type";"Black Thermoplastic";"";
"TraceParts.PartVersion";"1.0.4";"";
"External_Width";"13.13mm";"";
"SUPPLIER";"FARNELL";"";
"Contact_Termination";"Through Hole Right Angle";"";
"REFERENCE";"5787617-1";"";
"Termination_Method";"Solder";"";
"No__of_Mating_Cycles";"1500";"";
"Withstand_Voltage";"750V";"";
"TraceParts.PartTitle";"USB Stacked Connector, USB Type A, USB 2.0, 8 Positions, Right Angle, Copper Alloy";"";
"DESIGN";"USB Stacked Connector, USB Type A, USB 2.0, 8 Positions, Right Angle, Copper Alloy";"";
"USB_Connector_Type";"USB Type A";"";
"Contact_Material";"Copper Alloy";"";
"TraceParts.PartNumber";"11-26042017-080498";"";
"Mounting_Type";"PCB Through Hole";"";
"Orientation";"Right Angle";"";
"Flammability_Rating";"UL94V-0";"";
"Voltage_Rating_V_AC";"30V";"";
"TraceParts.PartStatusId";"";"";
"Insulation_Resistance";"1000Mohm";"";
"Connector_Mounting";"PCB Mount";"";
"Current_Rating";"1A";"";
"TRACEPARTS";"TRACEPARTS";"";
"Supplier_Name";"Farnell or Newark";"";
"No__of_Ways";"4+4";"";
"No__of_Contacts";"4Contacts";"";
"USB_Standard";"USB 2.0";"";
"Contact_Plating";"Gold Plated Contacts";"";
"TraceParts.ClassPath";"FARNELL:/F_FARNELL/300/300024/300024002/11-26042017-080498";"";
"TraceParts.InstanceId";"11-26042017-0804985PA22XLPYBK586KUWKJ72A8SG";"";
"TraceParts.PartStatus";"Published";"";
"External_Length___Height";"14.25mm";"";
"Body_Plating";"Gold";"";
"Connector_Type";"USB 2.0 A";"";
