PCBNEW-LibModule-V1  2019-04-14 00:16:01
# encoding utf-8
Units mm
$INDEX
SDCMF-10915W0T1
$EndINDEX
$MODULE SDCMF-10915W0T1
Po 0 0 0 15 5cb26db1 00000000 ~~
Li SDCMF-10915W0T1
Cd SDCMF-10915W0T1
Kw Connector
Sc 0
At STD
AR 
Op 0 0 0
T0 -0.075 -10.338 1.27 1.27 0 0.254 N V 21 N "J**"
T1 -0.075 -10.338 1.27 1.27 0 0.254 N I 21 N "SDCMF-10915W0T1"
DS -13 -23.42 13 -23.42 0.254 24
DS 13 -23.42 13 1.7 0.254 24
DS 13 1.7 -13 1.7 0.254 24
DS -13 1.7 -13 -23.42 0.254 24
DS -13 1.7 13 1.7 0.254 21
DS 13 -23.42 13 -1.729 0.254 21
DS 13 -23.42 10.233 -23.42 0.254 21
DS -13 -20.015 -13 -1.762 0.254 21
DC 7.476 -25.673 7.36284 -25.673 0.254 21
$PAD
Po 6.875 -23.92
Sh "1" R 1 1.5 0 0 0
At SMD N 00888000
Ne 0 ""
$EndPAD
$PAD
Po 4.375 -23.92
Sh "2" R 1 1.5 0 0 0
At SMD N 00888000
Ne 0 ""
$EndPAD
$PAD
Po 1.875 -23.92
Sh "3" R 1 1.5 0 0 0
At SMD N 00888000
Ne 0 ""
$EndPAD
$PAD
Po -0.625 -23.92
Sh "4" R 1 1.5 0 0 0
At SMD N 00888000
Ne 0 ""
$EndPAD
$PAD
Po -3.125 -23.92
Sh "5" R 1 1.5 0 0 0
At SMD N 00888000
Ne 0 ""
$EndPAD
$PAD
Po -5.625 -23.92
Sh "6" R 1 1.5 0 0 0
At SMD N 00888000
Ne 0 ""
$EndPAD
$PAD
Po -8.125 -23.92
Sh "7" R 1 1.5 0 0 0
At SMD N 00888000
Ne 0 ""
$EndPAD
$PAD
Po -9.75 -23.92
Sh "8" R 1 1.5 0 0 0
At SMD N 00888000
Ne 0 ""
$EndPAD
$PAD
Po 9.375 -23.92
Sh "9" R 1 1.5 0 0 0
At SMD N 00888000
Ne 0 ""
$EndPAD
$PAD
Po -11.05 -23.92
Sh "10" R 0.7 1.5 0 0 0
At SMD N 00888000
Ne 0 ""
$EndPAD
$PAD
Po -12.25 -23.92
Sh "11" R 0.7 1.5 0 0 0
At SMD N 00888000
Ne 0 ""
$EndPAD
$PAD
Po -13.65 -21.767
Sh "12" R 1.5 2.8 0 0 0
At SMD N 00888000
Ne 0 ""
$EndPAD
$PAD
Po 11.45 -21.5
Sh "13" R 1.5 2.8 0 0 0
At SMD N 00888000
Ne 0 ""
$EndPAD
$PAD
Po -13.65 0
Sh "14" R 1.5 2.8 0 0 0
At SMD N 00888000
Ne 0 ""
$EndPAD
$PAD
Po 13.65 0
Sh "15" R 1.5 2.8 0 0 0
At SMD N 00888000
Ne 0 ""
$EndPAD
$PAD
Po -11.5 -21.12
Sh "16" C 1.75 1.75 0 0 900
Dr 1.15 0 0
At STD N 00E0FFFF
Ne 0 ""
$EndPAD
$PAD
Po 9.5 -20.77
Sh "17" C 2.3 2.3 0 0 900
Dr 1.65 0 0
At STD N 00E0FFFF
Ne 0 ""
$EndPAD
$EndMODULE SDCMF-10915W0T1
$EndLIBRARY
