﻿"Symbol";"Value";"Unit";
"TraceParts.PartNumber";"10-15052018-123173";"";
"REFERENCE";"PJ-102B";"";
"TraceParts.PartTitle";"PJ-102B - 2.5 mm Center Pin, 2.5 A, Right Angle, Through Hole, Tapered Pins, Dc Power Jack Connector, RoHS Compliant";"";
"TraceParts.InstanceId";"10-15052018-12317344DRZAR7VEDLSMK2PQH0PRPNW";"";
"DESIGN";"2.5 mm Center Pin, 2.5 A, Right Angle, Through Hole, Tapered Pins, Dc Power Jack Connector";"";
"TraceParts.PartStatus";"Published";"";
"TraceParts.PartStatusId";"";"";
"SUPPLIER";"CUI";"";
"TraceParts.PartVersion";"1.0.1";"";
"TRACEPARTS";"TRACEPARTS";"";
"TraceParts.PartLanguage";"en";"";
"TraceParts.ClassPath";"CUI:/F_CUI/CUI.020/CUI.020.020/CUI.020.020.010/CUI.020.020.010.090/10-15052018-123173";"";
