Change Value of Parameter .Checked PCB in Part R? Old= New=as
Change Value of Parameter .Checked SCH in Part R? Old= New=as
Change Value of Parameter .Checked PCB in Implementation PCBLIB R0603 Old= New=as
Change Value of Parameter .Checked SCH in Implementation PCBLIB R0603 Old= New=as
Change Value of Parameter .Checked PCB in Part L? Old= New=as
Change Value of Parameter .Checked SCH in Part L? Old= New=as
Change Value of Parameter .Checked PCB in Implementation PCBLIB 42H17 Old= New=as
Change Value of Parameter .Checked SCH in Implementation PCBLIB 42H17 Old= New=as
Change Value of Parameter .Checked PCB in Part U? Old= New=as
Change Value of Parameter .Checked SCH in Part U? Old= New=as
Change Value of Parameter .Checked PCB in Implementation PCBLIB TSSOP24 Old= New=as
Change Value of Parameter .Checked SCH in Implementation PCBLIB TSSOP24 Old= New=as
Change Value of Parameter .Checked PCB in Part L? Old= New=as
Change Value of Parameter .Checked SCH in Part L? Old= New=as
Change Value of Parameter .Checked PCB in Implementation PCBLIB 7427512 Old= New=as
Change Value of Parameter .Checked SCH in Implementation PCBLIB 7427512 Old= New=as
Change Value of Parameter .Checked PCB in Part U? Old= New=as
Change Value of Parameter .Checked SCH in Part U? Old= New=as
Change Value of Parameter .Checked PCB in Implementation PCBLIB LQFP48 Old= New=as
Change Value of Parameter .Checked SCH in Implementation PCBLIB LQFP48 Old= New=as
Change Value of Parameter .Checked PCB in Part J? Old= New=as
Change Value of Parameter .Checked SCH in Part J? Old= New=as
Change Value of Parameter .Checked PCB in Implementation PCBLIB H2x10 Old= New=as
Change Value of Parameter .Checked SCH in Implementation PCBLIB H2x10 Old= New=as
Change Value of Parameter .Checked PCB in Part U? Old= New=as
Change Value of Parameter .Checked SCH in Part U? Old= New=as
Change Value of Parameter .Checked PCB in Implementation PCBLIB SOIC8 Old= New=as
Change Value of Parameter .Checked SCH in Implementation PCBLIB SOIC8 Old= New=as
Change Value of Parameter .Checked PCB in Implementation PCBLIB SOIC8N Old= New=as
Change Value of Parameter .Checked SCH in Implementation PCBLIB SOIC8N Old= New=as
Change Value of Parameter .Checked PCB in Part B? Old= New=as
Change Value of Parameter .Checked SCH in Part B? Old= New=as
Change Value of Parameter .Checked PCB in Implementation PCBLIB B82790 Old= New=as
Change Value of Parameter .Checked SCH in Implementation PCBLIB B82790 Old= New=as
Change Value of Parameter .Checked PCB in Part D? Old= New=as
Change Value of Parameter .Checked SCH in Part D? Old= New=as
Change Value of Parameter .Checked PCB in Implementation PCBLIB SOT23 Old= New=as
Change Value of Parameter .Checked SCH in Implementation PCBLIB SOT23 Old= New=as
Change Value of Parameter .Checked PCB in Part B? Old= New=as
Change Value of Parameter .Checked SCH in Part B? Old= New=as
Change Value of Parameter .Checked PCB in Implementation PCBLIB BR1225 Old= New=as
Change Value of Parameter .Checked SCH in Implementation PCBLIB BR1225 Old= New=as
Change Value of Parameter .Checked PCB in Part B? Old= New=as
Change Value of Parameter .Checked SCH in Part B? Old= New=as
Change Value of Parameter .Checked PCB in Implementation PCBLIB SOT143 Old= New=as
Change Value of Parameter .Checked SCH in Implementation PCBLIB SOT143 Old= New=as
Change Value of Parameter .Checked PCB in Part T? Old= New=as
Change Value of Parameter .Checked SCH in Part T? Old= New=as
Change Value of Parameter .Checked PCB in Implementation PCBLIB SOT23 Old= New=as
Change Value of Parameter .Checked SCH in Implementation PCBLIB SOT23 Old= New=as
Change Value of Parameter .Checked PCB in Implementation PCBLIB 1n Old= New=as
Change Value of Parameter .Checked SCH in Implementation PCBLIB 1n Old= New=as
Change Value of Parameter .Checked PCB in Implementation PCBLIB 0402 Old= New=as
Change Value of Parameter .Checked SCH in Implementation PCBLIB 0402 Old= New=as
Change Value of Parameter .Checked PCB in Implementation PCBLIB 0603 Old= New=as
Change Value of Parameter .Checked SCH in Implementation PCBLIB 0603 Old= New=as
Change Value of Parameter .Checked PCB in Implementation PCBLIB 0805 Old= New=as
Change Value of Parameter .Checked SCH in Implementation PCBLIB 0805 Old= New=as
Change Value of Parameter .Checked PCB in Implementation PCBLIB 1206 Old= New=as
Change Value of Parameter .Checked SCH in Implementation PCBLIB 1206 Old= New=as
Change Value of Parameter .Checked PCB in Implementation PCBLIB 3216A Old= New=as
Change Value of Parameter .Checked SCH in Implementation PCBLIB 3216A Old= New=as
Change Value of Parameter .Checked PCB in Part C? Old= New=as
Change Value of Parameter .Checked SCH in Part C? Old= New=as
Change Value of Parameter .Checked PCB in Part C? Old= New=as
Change Value of Parameter .Checked SCH in Part C? Old= New=as
Change Value of Parameter .Checked PCB in Implementation PCBLIB CTANTALD Old= New=as
Change Value of Parameter .Checked SCH in Implementation PCBLIB CTANTALD Old= New=as
Change Value of Parameter .Checked PCB in Implementation PCBLIB EC2/5 Old= New=as
Change Value of Parameter .Checked SCH in Implementation PCBLIB EC2/5 Old= New=as
Change Value of Parameter .Checked PCB in Implementation PCBLIB EC3.5/8 Old= New=as
Change Value of Parameter .Checked SCH in Implementation PCBLIB EC3.5/8 Old= New=as
Change Value of Parameter .Checked PCB in Implementation PCBLIB EC5/10 Old= New=as
Change Value of Parameter .Checked SCH in Implementation PCBLIB EC5/10 Old= New=as
Change Value of Parameter .Checked PCB in Implementation PCBLIB SC5/13 Old= New=as
Change Value of Parameter .Checked SCH in Implementation PCBLIB SC5/13 Old= New=as
Change Value of Parameter .Checked PCB in Implementation PCBLIB SC5/21 Old= New=as
Change Value of Parameter .Checked SCH in Implementation PCBLIB SC5/21 Old= New=as
Change Value of Parameter .Checked PCB in Part C? Old= New=as
Change Value of Parameter .Checked SCH in Part C? Old= New=as
Change Value of Parameter .Checked PCB in Implementation PCBLIB CTANTALD Old= New=as
Change Value of Parameter .Checked SCH in Implementation PCBLIB CTANTALD Old= New=as
Change Value of Parameter .Checked PCB in Implementation PCBLIB EC2/5 Old= New=as
Change Value of Parameter .Checked SCH in Implementation PCBLIB EC2/5 Old= New=as
Change Value of Parameter .Checked PCB in Implementation PCBLIB EC3.5/8 Old= New=as
Change Value of Parameter .Checked SCH in Implementation PCBLIB EC3.5/8 Old= New=as
Change Value of Parameter .Checked PCB in Implementation PCBLIB EC5/10 Old= New=as
Change Value of Parameter .Checked SCH in Implementation PCBLIB EC5/10 Old= New=as
Change Value of Parameter .Checked PCB in Implementation PCBLIB SC5/13 Old= New=as
Change Value of Parameter .Checked SCH in Implementation PCBLIB SC5/13 Old= New=as
Change Value of Parameter .Checked PCB in Implementation PCBLIB SC5/21 Old= New=as
Change Value of Parameter .Checked SCH in Implementation PCBLIB SC5/21 Old= New=as
Change Value of Parameter .Checked PCB in Part C? Old= New=as
Change Value of Parameter .Checked SCH in Part C? Old= New=as
Change Value of Parameter .Checked PCB in Implementation PCBLIB CTANTALD Old= New=as
Change Value of Parameter .Checked SCH in Implementation PCBLIB CTANTALD Old= New=as
Change Value of Parameter .Checked PCB in Implementation PCBLIB EC2/5 Old= New=as
Change Value of Parameter .Checked SCH in Implementation PCBLIB EC2/5 Old= New=as
Change Value of Parameter .Checked PCB in Implementation PCBLIB EC3.5/8 Old= New=as
Change Value of Parameter .Checked SCH in Implementation PCBLIB EC3.5/8 Old= New=as
Change Value of Parameter .Checked PCB in Implementation PCBLIB EC5/10 Old= New=as
Change Value of Parameter .Checked SCH in Implementation PCBLIB EC5/10 Old= New=as
Change Value of Parameter .Checked PCB in Implementation PCBLIB SC5/13 Old= New=as
Change Value of Parameter .Checked SCH in Implementation PCBLIB SC5/13 Old= New=as
Change Value of Parameter .Checked PCB in Implementation PCBLIB SC5/21 Old= New=as
Change Value of Parameter .Checked SCH in Implementation PCBLIB SC5/21 Old= New=as
Change Value of Parameter .Checked PCB in Part C? Old= New=as
Change Value of Parameter .Checked SCH in Part C? Old= New=as
Change Value of Parameter .Checked PCB in Implementation PCBLIB CTANTALD Old= New=as
Change Value of Parameter .Checked SCH in Implementation PCBLIB CTANTALD Old= New=as
Change Value of Parameter .Checked PCB in Implementation PCBLIB EC2/5 Old= New=as
Change Value of Parameter .Checked SCH in Implementation PCBLIB EC2/5 Old= New=as
Change Value of Parameter .Checked PCB in Implementation PCBLIB EC3.5/8 Old= New=as
Change Value of Parameter .Checked SCH in Implementation PCBLIB EC3.5/8 Old= New=as
Change Value of Parameter .Checked PCB in Implementation PCBLIB EC5/10 Old= New=as
Change Value of Parameter .Checked SCH in Implementation PCBLIB EC5/10 Old= New=as
Change Value of Parameter .Checked PCB in Implementation PCBLIB SC5/13 Old= New=as
Change Value of Parameter .Checked SCH in Implementation PCBLIB SC5/13 Old= New=as
Change Value of Parameter .Checked PCB in Implementation PCBLIB SC5/21 Old= New=as
Change Value of Parameter .Checked SCH in Implementation PCBLIB SC5/21 Old= New=as
Change Value of Parameter .Checked PCB in Part C? Old= New=as
Change Value of Parameter .Checked SCH in Part C? Old= New=as
Change Value of Parameter .Checked PCB in Implementation PCBLIB CTANTALD Old= New=as
Change Value of Parameter .Checked SCH in Implementation PCBLIB CTANTALD Old= New=as
Change Value of Parameter .Checked PCB in Implementation PCBLIB EC2/5 Old= New=as
Change Value of Parameter .Checked SCH in Implementation PCBLIB EC2/5 Old= New=as
Change Value of Parameter .Checked PCB in Implementation PCBLIB EC3.5/8 Old= New=as
Change Value of Parameter .Checked SCH in Implementation PCBLIB EC3.5/8 Old= New=as
Change Value of Parameter .Checked PCB in Implementation PCBLIB EC5/10 Old= New=as
Change Value of Parameter .Checked SCH in Implementation PCBLIB EC5/10 Old= New=as
Change Value of Parameter .Checked PCB in Implementation PCBLIB SC5/13 Old= New=as
Change Value of Parameter .Checked SCH in Implementation PCBLIB SC5/13 Old= New=as
Change Value of Parameter .Checked PCB in Implementation PCBLIB SC5/21 Old= New=as
Change Value of Parameter .Checked SCH in Implementation PCBLIB SC5/21 Old= New=as
Change Value of Parameter .Checked PCB in Implementation PCBLIB 3216A Old= New=as
Change Value of Parameter .Checked SCH in Implementation PCBLIB 3216A Old= New=as
Change Value of Parameter .Checked PCB in Implementation PCBLIB 3216A Old= New=as
Change Value of Parameter .Checked SCH in Implementation PCBLIB 3216A Old= New=as
Change Value of Parameter .Checked PCB in Implementation PCBLIB 3216A Old= New=as
Change Value of Parameter .Checked SCH in Implementation PCBLIB 3216A Old= New=as
Change Value of Parameter .Checked PCB in Implementation PCBLIB 3216A Old= New=as
Change Value of Parameter .Checked SCH in Implementation PCBLIB 3216A Old= New=as
Change Value of Parameter .Checked PCB in Implementation PCBLIB 3216A Old= New=as
Change Value of Parameter .Checked SCH in Implementation PCBLIB 3216A Old= New=as
Change Value of Parameter .Checked PCB in Implementation PCBLIB CTANTALD Old= New=as
Change Value of Parameter .Checked SCH in Implementation PCBLIB CTANTALD Old= New=as
Change Value of Parameter .Checked PCB in Implementation PCBLIB EC2/5 Old= New=as
Change Value of Parameter .Checked SCH in Implementation PCBLIB EC2/5 Old= New=as
Change Value of Parameter .Checked PCB in Implementation PCBLIB EC3.5/8 Old= New=as
Change Value of Parameter .Checked SCH in Implementation PCBLIB EC3.5/8 Old= New=as
Change Value of Parameter .Checked PCB in Implementation PCBLIB EC5/10 Old= New=as
Change Value of Parameter .Checked SCH in Implementation PCBLIB EC5/10 Old= New=as
Change Value of Parameter .Checked PCB in Implementation PCBLIB SC5/13 Old= New=as
Change Value of Parameter .Checked SCH in Implementation PCBLIB SC5/13 Old= New=as
Change Value of Parameter .Checked PCB in Implementation PCBLIB SC5/21 Old= New=as
Change Value of Parameter .Checked SCH in Implementation PCBLIB SC5/21 Old= New=as
Change Value of Parameter .Checked PCB in Part C? Old= New=as
Change Value of Parameter .Checked SCH in Part C? Old= New=as
Change Value of Parameter .Checked PCB in Part C? Old= New=as
Change Value of Parameter .Checked SCH in Part C? Old= New=as
Change Value of Parameter .Checked PCB in Part C? Old= New=as
Change Value of Parameter .Checked SCH in Part C? Old= New=as
Change Value of Parameter .Checked PCB in Part C? Old= New=as
Change Value of Parameter .Checked SCH in Part C? Old= New=as
Change Value of Parameter .Checked PCB in Part C? Old= New=as
Change Value of Parameter .Checked SCH in Part C? Old= New=as
Change Value of Parameter .Checked PCB in Part C? Old= New=as
Change Value of Parameter .Checked SCH in Part C? Old= New=as
Change Value of Parameter .Checked PCB in Part C? Old= New=as
Change Value of Parameter .Checked SCH in Part C? Old= New=as
Change Value of Parameter .Checked PCB in Part C? Old= New=as
Change Value of Parameter .Checked SCH in Part C? Old= New=as
Change Value of Parameter .Checked PCB in Part C? Old= New=as
Change Value of Parameter .Checked SCH in Part C? Old= New=as
Change Value of Parameter .Checked PCB in Part C? Old= New=as
Change Value of Parameter .Checked SCH in Part C? Old= New=as
Change Value of Parameter .Checked PCB in Part C? Old= New=as
Change Value of Parameter .Checked SCH in Part C? Old= New=as
Change Value of Parameter .Checked PCB in Part C? Old= New=as
Change Value of Parameter .Checked SCH in Part C? Old= New=as
Change Value of Parameter .Checked PCB in Implementation PCBLIB 1n Old= New=as
Change Value of Parameter .Checked SCH in Implementation PCBLIB 1n Old= New=as
Change Value of Parameter .Checked PCB in Part C? Old= New=as
Change Value of Parameter .Checked SCH in Part C? Old= New=as
Change Value of Parameter .Checked PCB in Part C? Old= New=as
Change Value of Parameter .Checked SCH in Part C? Old= New=as
Change Value of Parameter .Checked PCB in Part C? Old= New=as
Change Value of Parameter .Checked SCH in Part C? Old= New=as
Change Value of Parameter .Checked PCB in Part C? Old= New=as
Change Value of Parameter .Checked SCH in Part C? Old= New=as
Change Value of Parameter .Checked PCB in Implementation PCBLIB 1n Old= New=as
Change Value of Parameter .Checked SCH in Implementation PCBLIB 1n Old= New=as
Change Value of Parameter .Checked PCB in Implementation PCBLIB 1n Old= New=as
Change Value of Parameter .Checked SCH in Implementation PCBLIB 1n Old= New=as
Change Value of Parameter .Checked PCB in Implementation PCBLIB 1n Old= New=as
Change Value of Parameter .Checked SCH in Implementation PCBLIB 1n Old= New=as
Change Value of Parameter .Checked PCB in Implementation PCBLIB 1n Old= New=as
Change Value of Parameter .Checked SCH in Implementation PCBLIB 1n Old= New=as
Change Value of Parameter .Checked PCB in Implementation PCBLIB 1n Old= New=as
Change Value of Parameter .Checked SCH in Implementation PCBLIB 1n Old= New=as
Change Value of Parameter .Checked PCB in Implementation PCBLIB 1n Old= New=as
Change Value of Parameter .Checked SCH in Implementation PCBLIB 1n Old= New=as
Change Value of Parameter .Checked PCB in Implementation PCBLIB 1n Old= New=as
Change Value of Parameter .Checked SCH in Implementation PCBLIB 1n Old= New=as
Change Value of Parameter .Checked PCB in Implementation PCBLIB 1n Old= New=as
Change Value of Parameter .Checked SCH in Implementation PCBLIB 1n Old= New=as
Change Value of Parameter .Checked PCB in Implementation PCBLIB 1n Old= New=as
Change Value of Parameter .Checked SCH in Implementation PCBLIB 1n Old= New=as
Change Value of Parameter .Checked PCB in Implementation PCBLIB 1n Old= New=as
Change Value of Parameter .Checked SCH in Implementation PCBLIB 1n Old= New=as
Change Value of Parameter .Checked PCB in Implementation PCBLIB 1n Old= New=as
Change Value of Parameter .Checked SCH in Implementation PCBLIB 1n Old= New=as
Change Value of Parameter .Checked PCB in Implementation PCBLIB 1n Old= New=as
Change Value of Parameter .Checked SCH in Implementation PCBLIB 1n Old= New=as
Change Value of Parameter .Checked PCB in Implementation PCBLIB 1n Old= New=as
Change Value of Parameter .Checked SCH in Implementation PCBLIB 1n Old= New=as
Change Value of Parameter .Checked PCB in Implementation PCBLIB 1n Old= New=as
Change Value of Parameter .Checked SCH in Implementation PCBLIB 1n Old= New=as
Change Value of Parameter .Checked PCB in Implementation PCBLIB 0402 Old= New=as
Change Value of Parameter .Checked SCH in Implementation PCBLIB 0402 Old= New=as
Change Value of Parameter .Checked PCB in Implementation PCBLIB 0603 Old= New=as
Change Value of Parameter .Checked SCH in Implementation PCBLIB 0603 Old= New=as
Change Value of Parameter .Checked PCB in Implementation PCBLIB 0805 Old= New=as
Change Value of Parameter .Checked SCH in Implementation PCBLIB 0805 Old= New=as
Change Value of Parameter .Checked PCB in Implementation PCBLIB 1206 Old= New=as
Change Value of Parameter .Checked SCH in Implementation PCBLIB 1206 Old= New=as
Change Value of Parameter .Checked PCB in Implementation PCBLIB 0402 Old= New=as
Change Value of Parameter .Checked SCH in Implementation PCBLIB 0402 Old= New=as
Change Value of Parameter .Checked PCB in Implementation PCBLIB 0603 Old= New=as
Change Value of Parameter .Checked SCH in Implementation PCBLIB 0603 Old= New=as
Change Value of Parameter .Checked PCB in Implementation PCBLIB 0805 Old= New=as
Change Value of Parameter .Checked SCH in Implementation PCBLIB 0805 Old= New=as
Change Value of Parameter .Checked PCB in Implementation PCBLIB 1206 Old= New=as
Change Value of Parameter .Checked SCH in Implementation PCBLIB 1206 Old= New=as
Change Value of Parameter .Checked PCB in Implementation PCBLIB 0402 Old= New=as
Change Value of Parameter .Checked SCH in Implementation PCBLIB 0402 Old= New=as
Change Value of Parameter .Checked PCB in Implementation PCBLIB 0603 Old= New=as
Change Value of Parameter .Checked SCH in Implementation PCBLIB 0603 Old= New=as
Change Value of Parameter .Checked PCB in Implementation PCBLIB 0805 Old= New=as
Change Value of Parameter .Checked SCH in Implementation PCBLIB 0805 Old= New=as
Change Value of Parameter .Checked PCB in Implementation PCBLIB 1206 Old= New=as
Change Value of Parameter .Checked SCH in Implementation PCBLIB 1206 Old= New=as
Change Value of Parameter .Checked PCB in Implementation PCBLIB 0402 Old= New=as
Change Value of Parameter .Checked SCH in Implementation PCBLIB 0402 Old= New=as
Change Value of Parameter .Checked PCB in Implementation PCBLIB 0603 Old= New=as
Change Value of Parameter .Checked SCH in Implementation PCBLIB 0603 Old= New=as
Change Value of Parameter .Checked PCB in Implementation PCBLIB 0805 Old= New=as
Change Value of Parameter .Checked SCH in Implementation PCBLIB 0805 Old= New=as
Change Value of Parameter .Checked PCB in Implementation PCBLIB 1206 Old= New=as
Change Value of Parameter .Checked SCH in Implementation PCBLIB 1206 Old= New=as
Change Value of Parameter .Checked PCB in Implementation PCBLIB 0402 Old= New=as
Change Value of Parameter .Checked SCH in Implementation PCBLIB 0402 Old= New=as
Change Value of Parameter .Checked PCB in Implementation PCBLIB 0603 Old= New=as
Change Value of Parameter .Checked SCH in Implementation PCBLIB 0603 Old= New=as
Change Value of Parameter .Checked PCB in Implementation PCBLIB 0805 Old= New=as
Change Value of Parameter .Checked SCH in Implementation PCBLIB 0805 Old= New=as
Change Value of Parameter .Checked PCB in Implementation PCBLIB 1206 Old= New=as
Change Value of Parameter .Checked SCH in Implementation PCBLIB 1206 Old= New=as
Change Value of Parameter .Checked PCB in Implementation PCBLIB 0402 Old= New=as
Change Value of Parameter .Checked SCH in Implementation PCBLIB 0402 Old= New=as
Change Value of Parameter .Checked PCB in Implementation PCBLIB 0603 Old= New=as
Change Value of Parameter .Checked SCH in Implementation PCBLIB 0603 Old= New=as
Change Value of Parameter .Checked PCB in Implementation PCBLIB 0805 Old= New=as
Change Value of Parameter .Checked SCH in Implementation PCBLIB 0805 Old= New=as
Change Value of Parameter .Checked PCB in Implementation PCBLIB 1206 Old= New=as
Change Value of Parameter .Checked SCH in Implementation PCBLIB 1206 Old= New=as
Change Value of Parameter .Checked PCB in Implementation PCBLIB 0402 Old= New=as
Change Value of Parameter .Checked SCH in Implementation PCBLIB 0402 Old= New=as
Change Value of Parameter .Checked PCB in Implementation PCBLIB 0603 Old= New=as
Change Value of Parameter .Checked SCH in Implementation PCBLIB 0603 Old= New=as
Change Value of Parameter .Checked PCB in Implementation PCBLIB 0805 Old= New=as
Change Value of Parameter .Checked SCH in Implementation PCBLIB 0805 Old= New=as
Change Value of Parameter .Checked PCB in Implementation PCBLIB 1206 Old= New=as
Change Value of Parameter .Checked SCH in Implementation PCBLIB 1206 Old= New=as
Change Value of Parameter .Checked PCB in Implementation PCBLIB 0402 Old= New=as
Change Value of Parameter .Checked SCH in Implementation PCBLIB 0402 Old= New=as
Change Value of Parameter .Checked PCB in Implementation PCBLIB 0603 Old= New=as
Change Value of Parameter .Checked SCH in Implementation PCBLIB 0603 Old= New=as
Change Value of Parameter .Checked PCB in Implementation PCBLIB 0805 Old= New=as
Change Value of Parameter .Checked SCH in Implementation PCBLIB 0805 Old= New=as
Change Value of Parameter .Checked PCB in Implementation PCBLIB 1206 Old= New=as
Change Value of Parameter .Checked SCH in Implementation PCBLIB 1206 Old= New=as
Change Value of Parameter .Checked PCB in Implementation PCBLIB 0402 Old= New=as
Change Value of Parameter .Checked SCH in Implementation PCBLIB 0402 Old= New=as
Change Value of Parameter .Checked PCB in Implementation PCBLIB 0603 Old= New=as
Change Value of Parameter .Checked SCH in Implementation PCBLIB 0603 Old= New=as
Change Value of Parameter .Checked PCB in Implementation PCBLIB 0805 Old= New=as
Change Value of Parameter .Checked SCH in Implementation PCBLIB 0805 Old= New=as
Change Value of Parameter .Checked PCB in Implementation PCBLIB 1206 Old= New=as
Change Value of Parameter .Checked SCH in Implementation PCBLIB 1206 Old= New=as
Change Value of Parameter .Checked PCB in Implementation PCBLIB 0402 Old= New=as
Change Value of Parameter .Checked SCH in Implementation PCBLIB 0402 Old= New=as
Change Value of Parameter .Checked PCB in Implementation PCBLIB 0603 Old= New=as
Change Value of Parameter .Checked SCH in Implementation PCBLIB 0603 Old= New=as
Change Value of Parameter .Checked PCB in Implementation PCBLIB 0805 Old= New=as
Change Value of Parameter .Checked SCH in Implementation PCBLIB 0805 Old= New=as
Change Value of Parameter .Checked PCB in Implementation PCBLIB 1206 Old= New=as
Change Value of Parameter .Checked SCH in Implementation PCBLIB 1206 Old= New=as
Change Value of Parameter .Checked PCB in Implementation PCBLIB 0402 Old= New=as
Change Value of Parameter .Checked SCH in Implementation PCBLIB 0402 Old= New=as
Change Value of Parameter .Checked PCB in Implementation PCBLIB 0603 Old= New=as
Change Value of Parameter .Checked SCH in Implementation PCBLIB 0603 Old= New=as
Change Value of Parameter .Checked PCB in Implementation PCBLIB 0805 Old= New=as
Change Value of Parameter .Checked SCH in Implementation PCBLIB 0805 Old= New=as
Change Value of Parameter .Checked PCB in Implementation PCBLIB 1206 Old= New=as
Change Value of Parameter .Checked SCH in Implementation PCBLIB 1206 Old= New=as
Change Value of Parameter .Checked PCB in Implementation PCBLIB 0402 Old= New=as
Change Value of Parameter .Checked SCH in Implementation PCBLIB 0402 Old= New=as
Change Value of Parameter .Checked PCB in Implementation PCBLIB 0603 Old= New=as
Change Value of Parameter .Checked SCH in Implementation PCBLIB 0603 Old= New=as
Change Value of Parameter .Checked PCB in Implementation PCBLIB 0805 Old= New=as
Change Value of Parameter .Checked SCH in Implementation PCBLIB 0805 Old= New=as
Change Value of Parameter .Checked PCB in Implementation PCBLIB 1206 Old= New=as
Change Value of Parameter .Checked SCH in Implementation PCBLIB 1206 Old= New=as
Change Value of Parameter .Checked PCB in Implementation PCBLIB 0402 Old= New=as
Change Value of Parameter .Checked SCH in Implementation PCBLIB 0402 Old= New=as
Change Value of Parameter .Checked PCB in Implementation PCBLIB 0603 Old= New=as
Change Value of Parameter .Checked SCH in Implementation PCBLIB 0603 Old= New=as
Change Value of Parameter .Checked PCB in Implementation PCBLIB 0805 Old= New=as
Change Value of Parameter .Checked SCH in Implementation PCBLIB 0805 Old= New=as
Change Value of Parameter .Checked PCB in Implementation PCBLIB 1206 Old= New=as
Change Value of Parameter .Checked SCH in Implementation PCBLIB 1206 Old= New=as
Change Value of Parameter .Checked PCB in Implementation PCBLIB 0402 Old= New=as
Change Value of Parameter .Checked SCH in Implementation PCBLIB 0402 Old= New=as
Change Value of Parameter .Checked PCB in Implementation PCBLIB 0603 Old= New=as
Change Value of Parameter .Checked SCH in Implementation PCBLIB 0603 Old= New=as
Change Value of Parameter .Checked PCB in Implementation PCBLIB 0805 Old= New=as
Change Value of Parameter .Checked SCH in Implementation PCBLIB 0805 Old= New=as
Change Value of Parameter .Checked PCB in Implementation PCBLIB 1206 Old= New=as
Change Value of Parameter .Checked SCH in Implementation PCBLIB 1206 Old= New=as
Change Value of Parameter .Checked PCB in Implementation PCBLIB 0402 Old= New=as
Change Value of Parameter .Checked SCH in Implementation PCBLIB 0402 Old= New=as
Change Value of Parameter .Checked PCB in Implementation PCBLIB 0603 Old= New=as
Change Value of Parameter .Checked SCH in Implementation PCBLIB 0603 Old= New=as
Change Value of Parameter .Checked PCB in Implementation PCBLIB 0805 Old= New=as
Change Value of Parameter .Checked SCH in Implementation PCBLIB 0805 Old= New=as
Change Value of Parameter .Checked PCB in Implementation PCBLIB 1206 Old= New=as
Change Value of Parameter .Checked SCH in Implementation PCBLIB 1206 Old= New=as
Change Value of Parameter .Checked PCB in Part D? Old= New=as
Change Value of Parameter .Checked SCH in Part D? Old= New=as
Change Value of Parameter .Checked PCB in Part J? Old= New=as
Change Value of Parameter .Checked SCH in Part J? Old= New=as
Change Value of Parameter .Checked PCB in Implementation PCBLIB DRA9_F Old= New=as
Change Value of Parameter .Checked SCH in Implementation PCBLIB DRA9_F Old= New=as
Change Value of Parameter .Checked PCB in Part J? Old= New=as
Change Value of Parameter .Checked SCH in Part J? Old= New=as
Change Value of Parameter .Checked PCB in Implementation PCBLIB DRA9_M Old= New=as
Change Value of Parameter .Checked SCH in Implementation PCBLIB DRA9_M Old= New=as
Change Value of Parameter .Checked PCB in Implementation PCBLIB DRA9_M_RA Old= New=as
Change Value of Parameter .Checked SCH in Implementation PCBLIB DRA9_M_RA Old= New=as
Change Value of Parameter .Checked PCB in Part K? Old= New=as
Change Value of Parameter .Checked SCH in Part K? Old= New=as
Change Value of Parameter .Checked PCB in Implementation PCBLIB SODIMM200EDGE Old= New=as
Change Value of Parameter .Checked SCH in Implementation PCBLIB SODIMM200EDGE Old= New=as
Change Value of Parameter .Checked PCB in Part L? Old= New=as
Change Value of Parameter .Checked SCH in Part L? Old= New=as
Change Value of Parameter .Checked PCB in Implementation PCBLIB DLW5BSN Old= New=as
Change Value of Parameter .Checked SCH in Implementation PCBLIB DLW5BSN Old= New=as
Change Value of Parameter .Checked PCB in Implementation PCBLIB MELF Old= New=as
Change Value of Parameter .Checked SCH in Implementation PCBLIB MELF Old= New=as
Change Value of Parameter .Checked PCB in Part U? Old= New=as
Change Value of Parameter .Checked SCH in Part U? Old= New=as
Change Value of Parameter .Checked PCB in Implementation PCBLIB uSOP8 Old= New=as
Change Value of Parameter .Checked SCH in Implementation PCBLIB uSOP8 Old= New=as
Change Value of Parameter .Checked PCB in Part U? Old= New=as
Change Value of Parameter .Checked SCH in Part U? Old= New=as
Change Value of Parameter .Checked PCB in Implementation PCBLIB SOT23 Old= New=as
Change Value of Parameter .Checked SCH in Implementation PCBLIB SOT23 Old= New=as
Change Value of Parameter .Checked PCB in Part J? Old= New=as
Change Value of Parameter .Checked SCH in Part J? Old= New=as
Change Value of Parameter .Checked PCB in Implementation PCBLIB DVI_F_RA Old= New=as
Change Value of Parameter .Checked SCH in Implementation PCBLIB DVI_F_RA Old= New=as
Change Value of Parameter .Checked PCB in Implementation PCBLIB 0603 Old= New=as
Change Value of Parameter .Checked SCH in Implementation PCBLIB 0603 Old= New=as
Change Value of Parameter .Checked PCB in Implementation PCBLIB 0805 Old= New=as
Change Value of Parameter .Checked SCH in Implementation PCBLIB 0805 Old= New=as
Change Value of Parameter .Checked PCB in Part L? Old= New=as
Change Value of Parameter .Checked SCH in Part L? Old= New=as
Change Value of Parameter .Checked PCB in Part H? Old= New=as
Change Value of Parameter .Checked SCH in Part H? Old= New=as
Change Value of Parameter .Checked PCB in Part H? Old= New=as
Change Value of Parameter .Checked SCH in Part H? Old= New=as
Change Value of Parameter .Checked PCB in Implementation PCBLIB H1x2 Old= New=as
Change Value of Parameter .Checked SCH in Implementation PCBLIB H1x2 Old= New=as
Change Value of Parameter .Checked PCB in Part H? Old= New=as
Change Value of Parameter .Checked SCH in Part H? Old= New=as
Change Value of Parameter .Checked PCB in Implementation PCBLIB H1x2 Old= New=as
Change Value of Parameter .Checked SCH in Implementation PCBLIB H1x2 Old= New=as
Change Value of Parameter .Checked PCB in Implementation PCBLIB H1x2 Old= New=as
Change Value of Parameter .Checked SCH in Implementation PCBLIB H1x2 Old= New=as
Change Value of Parameter .Checked PCB in Part H? Old= New=as
Change Value of Parameter .Checked SCH in Part H? Old= New=as
Change Value of Parameter .Checked PCB in Implementation PCBLIB H1x3 Old= New=as
Change Value of Parameter .Checked SCH in Implementation PCBLIB H1x3 Old= New=as
Change Value of Parameter .Checked PCB in Part H? Old= New=as
Change Value of Parameter .Checked SCH in Part H? Old= New=as
Change Value of Parameter .Checked PCB in Implementation PCBLIB H1x4 Old= New=as
Change Value of Parameter .Checked SCH in Implementation PCBLIB H1x4 Old= New=as
Change Value of Parameter .Checked PCB in Part H? Old= New=as
Change Value of Parameter .Checked SCH in Part H? Old= New=as
Change Value of Parameter .Checked PCB in Implementation PCBLIB H2x5 Old= New=as
Change Value of Parameter .Checked SCH in Implementation PCBLIB H2x5 Old= New=as
Change Value of Parameter .Checked PCB in Part H? Old= New=as
Change Value of Parameter .Checked SCH in Part H? Old= New=as
Change Value of Parameter .Checked PCB in Implementation PCBLIB H2x20 Old= New=as
Change Value of Parameter .Checked SCH in Implementation PCBLIB H2x20 Old= New=as
Change Value of Parameter .Checked PCB in Part H? Old= New=as
Change Value of Parameter .Checked SCH in Part H? Old= New=as
Change Value of Parameter .Checked PCB in Implementation PCBLIB H2x25 Old= New=as
Change Value of Parameter .Checked SCH in Implementation PCBLIB H2x25 Old= New=as
Change Value of Parameter .Checked PCB in Part P? Old= New=as
Change Value of Parameter .Checked SCH in Part P? Old= New=as
Change Value of Parameter .Checked PCB in Implementation PCBLIB 47041-0001 Old= New=as
Change Value of Parameter .Checked SCH in Implementation PCBLIB 47041-0001 Old= New=as
Change Value of Parameter .Checked PCB in Implementation PCBLIB 0603 Old= New=as
Change Value of Parameter .Checked SCH in Implementation PCBLIB 0603 Old= New=as
Change Value of Parameter .Checked PCB in Implementation PCBLIB 0805 Old= New=as
Change Value of Parameter .Checked SCH in Implementation PCBLIB 0805 Old= New=as
Change Value of Parameter .Checked PCB in Part L? Old= New=as
Change Value of Parameter .Checked SCH in Part L? Old= New=as
Change Value of Parameter .Checked PCB in Part L? Old= New=as
Change Value of Parameter .Checked SCH in Part L? Old= New=as
Change Value of Parameter .Checked PCB in Implementation PCBLIB L127_NS Old= New=as
Change Value of Parameter .Checked SCH in Implementation PCBLIB L127_NS Old= New=as
Change Value of Parameter .Checked PCB in Part L? Old= New=as
Change Value of Parameter .Checked SCH in Part L? Old= New=as
Change Value of Parameter .Checked PCB in Implementation PCBLIB L127_NS Old= New=as
Change Value of Parameter .Checked SCH in Implementation PCBLIB L127_NS Old= New=as
Change Value of Parameter .Checked PCB in Implementation PCBLIB 0603 Old= New=as
Change Value of Parameter .Checked SCH in Implementation PCBLIB 0603 Old= New=as
Change Value of Parameter .Checked PCB in Implementation PCBLIB 0805 Old= New=as
Change Value of Parameter .Checked SCH in Implementation PCBLIB 0805 Old= New=as
Change Value of Parameter .Checked PCB in Implementation PCBLIB 0603 Old= New=as
Change Value of Parameter .Checked SCH in Implementation PCBLIB 0603 Old= New=as
Change Value of Parameter .Checked PCB in Implementation PCBLIB 0805 Old= New=as
Change Value of Parameter .Checked SCH in Implementation PCBLIB 0805 Old= New=as
Change Value of Parameter .Checked PCB in Implementation PCBLIB 0805 Old= New=as
Change Value of Parameter .Checked SCH in Implementation PCBLIB 0805 Old= New=as
Change Value of Parameter .Checked PCB in Part LD? Old= New=as
Change Value of Parameter .Checked SCH in Part LD? Old= New=as
Change Value of Parameter .Checked PCB in Part LH? Old= New=as
Change Value of Parameter .Checked SCH in Part LH? Old= New=as
Change Value of Parameter .Checked PCB in Implementation PCBLIB LED HOLDER 3 Old= New=as
Change Value of Parameter .Checked SCH in Implementation PCBLIB LED HOLDER 3 Old= New=as
Change Value of Parameter .Checked PCB in Implementation PCBLIB L127_NS Old= New=as
Change Value of Parameter .Checked SCH in Implementation PCBLIB L127_NS Old= New=as
Change Value of Parameter .Checked PCB in Part U? Old= New=as
Change Value of Parameter .Checked SCH in Part U? Old= New=as
Change Value of Parameter .Checked PCB in Implementation PCBLIB SOT223 Old= New=as
Change Value of Parameter .Checked SCH in Implementation PCBLIB SOT223 Old= New=as
Change Value of Parameter .Checked PCB in Part U? Old= New=as
Change Value of Parameter .Checked SCH in Part U? Old= New=as
Change Value of Parameter .Checked PCB in Implementation PCBLIB TO263_7 Old= New=as
Change Value of Parameter .Checked SCH in Implementation PCBLIB TO263_7 Old= New=as
Change Value of Parameter .Checked PCB in Part U? Old= New=as
Change Value of Parameter .Checked SCH in Part U? Old= New=as
Change Value of Parameter .Checked PCB in Implementation PCBLIB SOT23 Old= New=as
Change Value of Parameter .Checked SCH in Implementation PCBLIB SOT23 Old= New=as
Change Value of Parameter .Checked PCB in Part U? Old= New=as
Change Value of Parameter .Checked SCH in Part U? Old= New=as
Change Value of Parameter .Checked PCB in Implementation PCBLIB SOT23-5 Old= New=as
Change Value of Parameter .Checked SCH in Implementation PCBLIB SOT23-5 Old= New=as
Change Value of Parameter .Checked PCB in Part U? Old= New=as
Change Value of Parameter .Checked SCH in Part U? Old= New=as
Change Value of Parameter .Checked PCB in Implementation PCBLIB SOIC16N Old= New=as
Change Value of Parameter .Checked SCH in Implementation PCBLIB SOIC16N Old= New=as
Change Value of Parameter .Checked PCB in Implementation PCBLIB TSSOP16 Old= New=as
Change Value of Parameter .Checked SCH in Implementation PCBLIB TSSOP16 Old= New=as
Change Value of Parameter .Checked PCB in Part U? Old= New=as
Change Value of Parameter .Checked SCH in Part U? Old= New=as
Change Value of Parameter .Checked PCB in Implementation PCBLIB SOIC18W Old= New=as
Change Value of Parameter .Checked SCH in Implementation PCBLIB SOIC18W Old= New=as
Change Value of Parameter .Checked PCB in Part U? Old= New=as
Change Value of Parameter .Checked SCH in Part U? Old= New=as
Change Value of Parameter .Checked PCB in Implementation PCBLIB SOIC8N Old= New=as
Change Value of Parameter .Checked SCH in Implementation PCBLIB SOIC8N Old= New=as
Change Value of Parameter .Checked PCB in Part J? Old= New=as
Change Value of Parameter .Checked SCH in Part J? Old= New=as
Change Value of Parameter .Checked PCB in Implementation PCBLIB uSD10 Old= New=as
Change Value of Parameter .Checked SCH in Implementation PCBLIB uSD10 Old= New=as
Change Value of Parameter .Checked PCB in Part J? Old= New=as
Change Value of Parameter .Checked SCH in Part J? Old= New=as
Change Value of Parameter .Checked PCB in Implementation PCBLIB MINI_USB_AB Old= New=as
Change Value of Parameter .Checked SCH in Implementation PCBLIB MINI_USB_AB Old= New=as
Change Value of Parameter .Checked PCB in Part J? Old= New=as
Change Value of Parameter .Checked SCH in Part J? Old= New=as
Change Value of Parameter .Checked PCB in Implementation PCBLIB SDCMF-109 Old= New=as
Change Value of Parameter .Checked SCH in Implementation PCBLIB SDCMF-109 Old= New=as
Change Value of Parameter .Checked PCB in Part U? Old= New=as
Change Value of Parameter .Checked SCH in Part U? Old= New=as
Change Value of Parameter .Checked PCB in Implementation PCBLIB TSSOP14 Old= New=as
Change Value of Parameter .Checked SCH in Implementation PCBLIB TSSOP14 Old= New=as
Change Value of Parameter .Checked PCB in Part U? Old= New=as
Change Value of Parameter .Checked SCH in Part U? Old= New=as
Change Value of Parameter .Checked PCB in Implementation PCBLIB SC70 Old= New=as
Change Value of Parameter .Checked SCH in Implementation PCBLIB SC70 Old= New=as
Change Value of Parameter .Checked PCB in Part C? Old= New=as
Change Value of Parameter .Checked SCH in Part C? Old= New=as
Change Value of Parameter .Checked PCB in Implementation SI L Old= New=as
Change Value of Parameter .Checked SCH in Implementation SI L Old= New=as
Change Value of Parameter .Checked PCB in Implementation PCBLIB NFM18P Old= New=as
Change Value of Parameter .Checked SCH in Implementation PCBLIB NFM18P Old= New=as
Change Value of Parameter .Checked PCB in Part TS? Old= New=as
Change Value of Parameter .Checked SCH in Part TS? Old= New=as
Change Value of Parameter .Checked PCB in Implementation PCBLIB SOT23 Old= New=as
Change Value of Parameter .Checked SCH in Implementation PCBLIB SOT23 Old= New=as
Change Value of Parameter .Checked PCB in Part Y? Old= New=as
Change Value of Parameter .Checked SCH in Part Y? Old= New=as
Change Value of Parameter .Checked PCB in Implementation PCBLIB JO75 Old= New=as
Change Value of Parameter .Checked SCH in Implementation PCBLIB JO75 Old= New=as
Change Value of Parameter .Checked PCB in Part SW? Old= New=as
Change Value of Parameter .Checked SCH in Part SW? Old= New=as
Change Value of Parameter .Checked PCB in Part SW? Old= New=as
Change Value of Parameter .Checked SCH in Part SW? Old= New=as
Change Value of Parameter .Checked PCB in Implementation PCBLIB BUTTON_KSM61X Old= New=as
Change Value of Parameter .Checked SCH in Implementation PCBLIB BUTTON_KSM61X Old= New=as
Change Value of Parameter .Checked PCB in Implementation PCBLIB BUTTON_RA_NS Old= New=as
Change Value of Parameter .Checked SCH in Implementation PCBLIB BUTTON_RA_NS Old= New=as
Change Value of Parameter .Checked PCB in Part SW? Old= New=as
Change Value of Parameter .Checked SCH in Part SW? Old= New=as
Change Value of Parameter .Checked PCB in Implementation PCBLIB BUTTON_KSM61X Old= New=as
Change Value of Parameter .Checked SCH in Implementation PCBLIB BUTTON_KSM61X Old= New=as
Change Value of Parameter .Checked PCB in Implementation PCBLIB BUTTON_RA_NS Old= New=as
Change Value of Parameter .Checked SCH in Implementation PCBLIB BUTTON_RA_NS Old= New=as
Change Value of Parameter .Checked PCB in Part SW? Old= New=as
Change Value of Parameter .Checked SCH in Part SW? Old= New=as
Change Value of Parameter .Checked PCB in Implementation PCBLIB BUTTON_KSM61X Old= New=as
Change Value of Parameter .Checked SCH in Implementation PCBLIB BUTTON_KSM61X Old= New=as
Change Value of Parameter .Checked PCB in Implementation PCBLIB BUTTON_RA_NS Old= New=as
Change Value of Parameter .Checked SCH in Implementation PCBLIB BUTTON_RA_NS Old= New=as
Change Value of Parameter .Checked PCB in Part SW? Old= New=as
Change Value of Parameter .Checked SCH in Part SW? Old= New=as
Change Value of Parameter .Checked PCB in Implementation PCBLIB BUTTON_KSM61X Old= New=as
Change Value of Parameter .Checked SCH in Implementation PCBLIB BUTTON_KSM61X Old= New=as
Change Value of Parameter .Checked PCB in Implementation PCBLIB BUTTON_RA_NS Old= New=as
Change Value of Parameter .Checked SCH in Implementation PCBLIB BUTTON_RA_NS Old= New=as
Change Value of Parameter .Checked PCB in Part SW? Old= New=as
Change Value of Parameter .Checked SCH in Part SW? Old= New=as
Change Value of Parameter .Checked PCB in Implementation PCBLIB BUTTON_KSM61X Old= New=as
Change Value of Parameter .Checked SCH in Implementation PCBLIB BUTTON_KSM61X Old= New=as
Change Value of Parameter .Checked PCB in Implementation PCBLIB BUTTON_RA_NS Old= New=as
Change Value of Parameter .Checked SCH in Implementation PCBLIB BUTTON_RA_NS Old= New=as
Change Value of Parameter .Checked PCB in Implementation PCBLIB BUTTON_KSM61X Old= New=as
Change Value of Parameter .Checked SCH in Implementation PCBLIB BUTTON_KSM61X Old= New=as
Change Value of Parameter .Checked PCB in Implementation PCBLIB BUTTON_RA_NS Old= New=as
Change Value of Parameter .Checked SCH in Implementation PCBLIB BUTTON_RA_NS Old= New=as
Change Value of Parameter .Checked PCB in Part U? Old= New=as
Change Value of Parameter .Checked SCH in Part U? Old= New=as
Change Value of Parameter .Checked PCB in Implementation PCBLIB SOIC8N Old= New=as
Change Value of Parameter .Checked SCH in Implementation PCBLIB SOIC8N Old= New=as
Change Value of Parameter .Checked PCB in Part U? Old= New=as
Change Value of Parameter .Checked SCH in Part U? Old= New=as
Change Value of Parameter .Checked PCB in Implementation PCBLIB TSSOP8 Old= New=as
Change Value of Parameter .Checked SCH in Implementation PCBLIB TSSOP8 Old= New=as
Change Value of Parameter .Checked PCB in Part J? Old= New=as
Change Value of Parameter .Checked SCH in Part J? Old= New=as
Change Value of Parameter .Checked PCB in Implementation PCBLIB POWER_JACK_5.5/2.1MM_NS Old= New=as
Change Value of Parameter .Checked SCH in Implementation PCBLIB POWER_JACK_5.5/2.1MM_NS Old= New=as
Change Value of Parameter .Checked PCB in Implementation PCBLIB 0402 Old= New=as
Change Value of Parameter .Checked SCH in Implementation PCBLIB 0402 Old= New=as
Change Value of Parameter .Checked PCB in Implementation PCBLIB 0603 Old= New=as
Change Value of Parameter .Checked SCH in Implementation PCBLIB 0603 Old= New=as
Change Value of Parameter .Checked PCB in Part R? Old= New=as
Change Value of Parameter .Checked SCH in Part R? Old= New=as
Change Value of Parameter .Checked PCB in Part R? Old= New=as
Change Value of Parameter .Checked SCH in Part R? Old= New=as
Change Value of Parameter .Checked PCB in Part R? Old= New=as
Change Value of Parameter .Checked SCH in Part R? Old= New=as
Change Value of Parameter .Checked PCB in Part R? Old= New=as
Change Value of Parameter .Checked SCH in Part R? Old= New=as
Change Value of Parameter .Checked PCB in Part R? Old= New=as
Change Value of Parameter .Checked SCH in Part R? Old= New=as
Change Value of Parameter .Checked PCB in Part R? Old= New=as
Change Value of Parameter .Checked SCH in Part R? Old= New=as
Change Value of Parameter .Checked PCB in Part R? Old= New=as
Change Value of Parameter .Checked SCH in Part R? Old= New=as
Change Value of Parameter .Checked PCB in Part R? Old= New=as
Change Value of Parameter .Checked SCH in Part R? Old= New=as
Change Value of Parameter .Checked PCB in Part R? Old= New=as
Change Value of Parameter .Checked SCH in Part R? Old= New=as
Change Value of Parameter .Checked PCB in Part R? Old= New=as
Change Value of Parameter .Checked SCH in Part R? Old= New=as
Change Value of Parameter .Checked PCB in Part R? Old= New=as
Change Value of Parameter .Checked SCH in Part R? Old= New=as
Change Value of Parameter .Checked PCB in Part R? Old= New=as
Change Value of Parameter .Checked SCH in Part R? Old= New=as
Change Value of Parameter .Checked PCB in Part R? Old= New=as
Change Value of Parameter .Checked SCH in Part R? Old= New=as
Change Value of Parameter .Checked PCB in Part R? Old= New=as
Change Value of Parameter .Checked SCH in Part R? Old= New=as
Change Value of Parameter .Checked PCB in Part R? Old= New=as
Change Value of Parameter .Checked SCH in Part R? Old= New=as
Change Value of Parameter .Checked PCB in Part R? Old= New=as
Change Value of Parameter .Checked SCH in Part R? Old= New=as
Change Value of Parameter .Checked PCB in Part R? Old= New=as
Change Value of Parameter .Checked SCH in Part R? Old= New=as
Change Value of Parameter .Checked PCB in Part R? Old= New=as
Change Value of Parameter .Checked SCH in Part R? Old= New=as
Change Value of Parameter .Checked PCB in Implementation PCBLIB 0402 Old= New=as
Change Value of Parameter .Checked SCH in Implementation PCBLIB 0402 Old= New=as
Change Value of Parameter .Checked PCB in Implementation PCBLIB 0603 Old= New=as
Change Value of Parameter .Checked SCH in Implementation PCBLIB 0603 Old= New=as
Change Value of Parameter .Checked PCB in Implementation PCBLIB 0402 Old= New=as
Change Value of Parameter .Checked SCH in Implementation PCBLIB 0402 Old= New=as
Change Value of Parameter .Checked PCB in Implementation PCBLIB 0603 Old= New=as
Change Value of Parameter .Checked SCH in Implementation PCBLIB 0603 Old= New=as
Change Value of Parameter .Checked PCB in Implementation PCBLIB 0402 Old= New=as
Change Value of Parameter .Checked SCH in Implementation PCBLIB 0402 Old= New=as
Change Value of Parameter .Checked PCB in Implementation PCBLIB 0603 Old= New=as
Change Value of Parameter .Checked SCH in Implementation PCBLIB 0603 Old= New=as
Change Value of Parameter .Checked PCB in Implementation PCBLIB 0402 Old= New=as
Change Value of Parameter .Checked SCH in Implementation PCBLIB 0402 Old= New=as
Change Value of Parameter .Checked PCB in Implementation PCBLIB 0603 Old= New=as
Change Value of Parameter .Checked SCH in Implementation PCBLIB 0603 Old= New=as
Change Value of Parameter .Checked PCB in Implementation PCBLIB 0402 Old= New=as
Change Value of Parameter .Checked SCH in Implementation PCBLIB 0402 Old= New=as
Change Value of Parameter .Checked PCB in Implementation PCBLIB 0603 Old= New=as
Change Value of Parameter .Checked SCH in Implementation PCBLIB 0603 Old= New=as
Change Value of Parameter .Checked PCB in Implementation PCBLIB 0402 Old= New=as
Change Value of Parameter .Checked SCH in Implementation PCBLIB 0402 Old= New=as
Change Value of Parameter .Checked PCB in Implementation PCBLIB 0603 Old= New=as
Change Value of Parameter .Checked SCH in Implementation PCBLIB 0603 Old= New=as
Change Value of Parameter .Checked PCB in Implementation PCBLIB 0402 Old= New=as
Change Value of Parameter .Checked SCH in Implementation PCBLIB 0402 Old= New=as
Change Value of Parameter .Checked PCB in Implementation PCBLIB 0603 Old= New=as
Change Value of Parameter .Checked SCH in Implementation PCBLIB 0603 Old= New=as
Change Value of Parameter .Checked PCB in Implementation PCBLIB 0402 Old= New=as
Change Value of Parameter .Checked SCH in Implementation PCBLIB 0402 Old= New=as
Change Value of Parameter .Checked PCB in Implementation PCBLIB 0603 Old= New=as
Change Value of Parameter .Checked SCH in Implementation PCBLIB 0603 Old= New=as
Change Value of Parameter .Checked PCB in Implementation PCBLIB 0402 Old= New=as
Change Value of Parameter .Checked SCH in Implementation PCBLIB 0402 Old= New=as
Change Value of Parameter .Checked PCB in Implementation PCBLIB 0603 Old= New=as
Change Value of Parameter .Checked SCH in Implementation PCBLIB 0603 Old= New=as
Change Value of Parameter .Checked PCB in Implementation PCBLIB 0402 Old= New=as
Change Value of Parameter .Checked SCH in Implementation PCBLIB 0402 Old= New=as
Change Value of Parameter .Checked PCB in Implementation PCBLIB 0603 Old= New=as
Change Value of Parameter .Checked SCH in Implementation PCBLIB 0603 Old= New=as
Change Value of Parameter .Checked PCB in Implementation PCBLIB 0402 Old= New=as
Change Value of Parameter .Checked SCH in Implementation PCBLIB 0402 Old= New=as
Change Value of Parameter .Checked PCB in Implementation PCBLIB 0603 Old= New=as
Change Value of Parameter .Checked SCH in Implementation PCBLIB 0603 Old= New=as
Change Value of Parameter .Checked PCB in Implementation PCBLIB 0402 Old= New=as
Change Value of Parameter .Checked SCH in Implementation PCBLIB 0402 Old= New=as
Change Value of Parameter .Checked PCB in Implementation PCBLIB 0603 Old= New=as
Change Value of Parameter .Checked SCH in Implementation PCBLIB 0603 Old= New=as
Change Value of Parameter .Checked PCB in Implementation PCBLIB 0603 Old= New=as
Change Value of Parameter .Checked SCH in Implementation PCBLIB 0603 Old= New=as
Change Value of Parameter .Checked PCB in Implementation PCBLIB 0603 Old= New=as
Change Value of Parameter .Checked SCH in Implementation PCBLIB 0603 Old= New=as
Change Value of Parameter .Checked PCB in Implementation PCBLIB 0603 Old= New=as
Change Value of Parameter .Checked SCH in Implementation PCBLIB 0603 Old= New=as
Change Value of Parameter .Checked PCB in Implementation PCBLIB 0603 Old= New=as
Change Value of Parameter .Checked SCH in Implementation PCBLIB 0603 Old= New=as
Change Value of Parameter .Checked PCB in Implementation PCBLIB 0603 Old= New=as
Change Value of Parameter .Checked SCH in Implementation PCBLIB 0603 Old= New=as
Change Value of Parameter .Checked PCB in Part J? Old= New=as
Change Value of Parameter .Checked SCH in Part J? Old= New=as
Change Value of Parameter .Checked PCB in Implementation PCBLIB RJ45LED Old= New=as
Change Value of Parameter .Checked SCH in Implementation PCBLIB RJ45LED Old= New=as
Change Value of Parameter .Checked PCB in Part RN? Old= New=as
Change Value of Parameter .Checked SCH in Part RN? Old= New=as
Change Value of Parameter .Checked PCB in Implementation PCBLIB RX4_NS Old= New=as
Change Value of Parameter .Checked SCH in Implementation PCBLIB RX4_NS Old= New=as
Change Value of Parameter .Checked PCB in Part J? Old= New=as
Change Value of Parameter .Checked SCH in Part J? Old= New=as
Change Value of Parameter .Checked PCB in Implementation PCBLIB SCI8F Old= New=as
Change Value of Parameter .Checked SCH in Implementation PCBLIB SCI8F Old= New=as
Change Value of Parameter .Checked PCB in Part *? Old= New=as
Change Value of Parameter .Checked SCH in Part *? Old= New=as
Change Value of Parameter .Checked PCB in Part U? Old= New=as
Change Value of Parameter .Checked SCH in Part U? Old= New=as
Change Value of Parameter .Checked PCB in Implementation PCBLIB SFH511x Old= New=as
Change Value of Parameter .Checked SCH in Implementation PCBLIB SFH511x Old= New=as
Change Value of Parameter .Checked PCB in Part U? Old= New=as
Change Value of Parameter .Checked SCH in Part U? Old= New=as
Change Value of Parameter .Checked PCB in Implementation PCBLIB QFN32 Old= New=as
Change Value of Parameter .Checked SCH in Implementation PCBLIB QFN32 Old= New=as
Change Value of Parameter .Checked PCB in Part D? Old= New=as
Change Value of Parameter .Checked SCH in Part D? Old= New=as
Change Value of Parameter .Checked PCB in Implementation PCBLIB SMB Old= New=as
Change Value of Parameter .Checked SCH in Implementation PCBLIB SMB Old= New=as
Change Value of Parameter .Checked PCB in Part U? Old= New=as
Change Value of Parameter .Checked SCH in Part U? Old= New=as
Change Value of Parameter .Checked PCB in Implementation PCBLIB QFN20 Old= New=as
Change Value of Parameter .Checked SCH in Implementation PCBLIB QFN20 Old= New=as
Change Value of Parameter .Checked PCB in Part J? Old= New=as
Change Value of Parameter .Checked SCH in Part J? Old= New=as
Change Value of Parameter .Checked PCB in Implementation PCBLIB SJ35_NS Old= New=as
Change Value of Parameter .Checked SCH in Implementation PCBLIB SJ35_NS Old= New=as
Change Value of Parameter .Checked PCB in Part U? Old= New=as
Change Value of Parameter .Checked SCH in Part U? Old= New=as
Change Value of Parameter .Checked PCB in Implementation PCBLIB SOIC8 Old= New=as
Change Value of Parameter .Checked SCH in Implementation PCBLIB SOIC8 Old= New=as
Change Value of Parameter .Checked PCB in Part U? Old= New=as
Change Value of Parameter .Checked SCH in Part U? Old= New=as
Change Value of Parameter .Checked PCB in Implementation PCBLIB LQFP32 Old= New=as
Change Value of Parameter .Checked SCH in Implementation PCBLIB LQFP32 Old= New=as
Change Value of Parameter .Checked PCB in Part TP? Old= New=as
Change Value of Parameter .Checked SCH in Part TP? Old= New=as
Change Value of Parameter .Checked PCB in Implementation SI Test Old= New=as
Change Value of Parameter .Checked SCH in Implementation SI Test Old= New=as
Change Value of Parameter .Checked PCB in Implementation PCBLIB TESTPOINT Old= New=as
Change Value of Parameter .Checked SCH in Implementation PCBLIB TESTPOINT Old= New=as
Change Value of Parameter .Checked PCB in Implementation PCBLIB TESTPOINT_2mm Old= New=as
Change Value of Parameter .Checked SCH in Implementation PCBLIB TESTPOINT_2mm Old= New=as
Change Value of Parameter .Checked PCB in Part U? Old= New=as
Change Value of Parameter .Checked SCH in Part U? Old= New=as
Change Value of Parameter .Checked PCB in Implementation PCBLIB TDFU4101 Old= New=as
Change Value of Parameter .Checked SCH in Implementation PCBLIB TDFU4101 Old= New=as
Change Value of Parameter .Checked PCB in Part U? Old= New=as
Change Value of Parameter .Checked SCH in Part U? Old= New=as
Change Value of Parameter .Checked PCB in Implementation PCBLIB TQFP64 Old= New=as
Change Value of Parameter .Checked SCH in Implementation PCBLIB TQFP64 Old= New=as
Change Value of Parameter .Checked PCB in Part TR? Old= New=as
Change Value of Parameter .Checked SCH in Part TR? Old= New=as
Change Value of Parameter .Checked PCB in Implementation PCBLIB SOIC16M Old= New=as
Change Value of Parameter .Checked SCH in Implementation PCBLIB SOIC16M Old= New=as
Change Value of Parameter .Checked PCB in Part U? Old= New=as
Change Value of Parameter .Checked SCH in Part U? Old= New=as
Change Value of Parameter .Checked PCB in Implementation PCBLIB TSSOP16 Old= New=as
Change Value of Parameter .Checked SCH in Implementation PCBLIB TSSOP16 Old= New=as
Change Value of Parameter .Checked PCB in Part U? Old= New=as
Change Value of Parameter .Checked SCH in Part U? Old= New=as
Change Value of Parameter .Checked PCB in Implementation PCBLIB TSSOP20 Old= New=as
Change Value of Parameter .Checked SCH in Implementation PCBLIB TSSOP20 Old= New=as
Change Value of Parameter .Checked PCB in Part J? Old= New=as
Change Value of Parameter .Checked SCH in Part J? Old= New=as
Change Value of Parameter .Checked PCB in Implementation PCBLIB USB-2A Old= New=as
Change Value of Parameter .Checked SCH in Implementation PCBLIB USB-2A Old= New=as
Change Value of Parameter .Checked PCB in Part U? Old= New=as
Change Value of Parameter .Checked SCH in Part U? Old= New=as
Change Value of Parameter .Checked PCB in Implementation PCBLIB QFN36 Old= New=as
Change Value of Parameter .Checked SCH in Implementation PCBLIB QFN36 Old= New=as
Change Value of Parameter .Checked PCB in Part X? Old= New=as
Change Value of Parameter .Checked SCH in Part X? Old= New=as
Change Value of Parameter .Checked PCB in Part X? Old= New=as
Change Value of Parameter .Checked SCH in Part X? Old= New=as
Change Value of Parameter .Checked PCB in Implementation PCBLIB HC494H Old= New=as
Change Value of Parameter .Checked SCH in Implementation PCBLIB HC494H Old= New=as
Change Value of Parameter .Checked SCH in Part X? Old= New=as
Change Value of Parameter .Checked PCB in Implementation PCBLIB HC494H Old= New=as
Change Value of Parameter .Checked SCH in Implementation PCBLIB HC494H Old= New=as
Change Value of Parameter .Checked SCH in Part X? Old= New=as
Change Value of Parameter .Checked PCB in Implementation PCBLIB SMQ32S Old= New=as
Change Value of Parameter .Checked SCH in Implementation PCBLIB SMQ32S Old= New=as
Change Value of Parameter .Checked PCB in Implementation PCBLIB HC494H Old= New=as
Change Value of Parameter .Checked SCH in Implementation PCBLIB HC494H Old= New=as
Change Value of Parameter .Checked SCH in Part ZD? Old= New=as
Change Value of Parameter .Checked PCB in Implementation PCBLIB DO214AA Old= New=as
Change Value of Parameter .Checked SCH in Implementation PCBLIB DO214AA Old= New=as
