<?xml version="1.0" encoding="utf-8"?>
<!--/245479/130825/2.38/9/3/Connector/-->
<!DOCTYPE curve SYSTEM "eagle.dtd">
<eagle version="7.7.0">
<drawing>
<settings>
<setting alwaysvectorfont="no"/>
<setting verticaltext="up"/>
</settings>
<grid distance="0.1" unitdist="inch" unit="inch" style="lines" multiple="1" display="no" altdistance="0.01" altunitdist="inch" altunit="inch"/>
<layers>
<layer number="1" name="Top" color="4" fill="1" visible="yes" active="yes"/>
<layer number="16" name="Bottom" color="1" fill="1" visible="yes" active="yes"/>
<layer number="17" name="Pads" color="2" fill="1" visible="yes" active="yes"/>
<layer number="18" name="Vias" color="2" fill="1" visible="yes" active="yes"/>
<layer number="19" name="Unrouted" color="6" fill="1" visible="yes" active="yes"/>
<layer number="20" name="Dimension" color="15" fill="1" visible="yes" active="yes"/>
<layer number="21" name="tPlace" color="7" fill="1" visible="yes" active="yes"/>
<layer number="22" name="bPlace" color="7" fill="1" visible="yes" active="yes"/>
<layer number="23" name="tOrigins" color="15" fill="1" visible="yes" active="yes"/>
<layer number="24" name="bOrigins" color="15" fill="1" visible="yes" active="yes"/>
<layer number="25" name="tNames" color="7" fill="1" visible="yes" active="yes"/>
<layer number="26" name="bNames" color="7" fill="1" visible="yes" active="yes"/>
<layer number="27" name="tValues" color="7" fill="1" visible="yes" active="yes"/>
<layer number="28" name="bValues" color="7" fill="1" visible="yes" active="yes"/>
<layer number="29" name="tStop" color="7" fill="3" visible="no" active="yes"/>
<layer number="30" name="bStop" color="7" fill="6" visible="no" active="yes"/>
<layer number="31" name="tCream" color="7" fill="4" visible="no" active="yes"/>
<layer number="32" name="bCream" color="7" fill="5" visible="no" active="yes"/>
<layer number="33" name="tFinish" color="6" fill="3" visible="no" active="yes"/>
<layer number="34" name="bFinish" color="6" fill="6" visible="no" active="yes"/>
<layer number="35" name="tGlue" color="7" fill="4" visible="no" active="yes"/>
<layer number="36" name="bGlue" color="7" fill="5" visible="no" active="yes"/>
<layer number="37" name="tTest" color="7" fill="1" visible="no" active="yes"/>
<layer number="38" name="bTest" color="7" fill="1" visible="no" active="yes"/>
<layer number="39" name="tKeepout" color="4" fill="11" visible="yes" active="yes"/>
<layer number="40" name="bKeepout" color="1" fill="11" visible="yes" active="yes"/>
<layer number="41" name="tRestrict" color="4" fill="10" visible="yes" active="yes"/>
<layer number="42" name="bRestrict" color="1" fill="10" visible="yes" active="yes"/>
<layer number="43" name="vRestrict" color="2" fill="10" visible="yes" active="yes"/>
<layer number="44" name="Drills" color="7" fill="1" visible="no" active="yes"/>
<layer number="45" name="Holes" color="7" fill="1" visible="no" active="yes"/>
<layer number="46" name="Milling" color="3" fill="1" visible="no" active="yes"/>
<layer number="47" name="Measures" color="7" fill="1" visible="no" active="yes"/>
<layer number="48" name="Document" color="7" fill="1" visible="yes" active="yes"/>
<layer number="49" name="Reference" color="7" fill="1" visible="yes" active="yes"/>
<layer number="51" name="tDocu" color="7" fill="1" visible="yes" active="yes"/>
<layer number="52" name="bDocu" color="7" fill="1" visible="yes" active="yes"/>
<layer number="90" name="Modules" color="5" fill="1" visible="yes" active="yes"/>
<layer number="91" name="Nets" color="2" fill="1" visible="yes" active="yes"/>
<layer number="92" name="Busses" color="1" fill="1" visible="yes" active="yes"/>
<layer number="93" name="Pins" color="2" fill="1" visible="no" active="yes"/>
<layer number="94" name="Symbols" color="4" fill="1" visible="yes" active="yes"/>
<layer number="95" name="Names" color="7" fill="1" visible="yes" active="yes"/>
<layer number="96" name="Values" color="7" fill="1" visible="yes" active="yes"/>
<layer number="97" name="Info" color="7" fill="1" visible="yes" active="yes"/>
<layer number="98" name="Guide" color="6" fill="1" visible="yes" active="yes"/>
</layers>
<library>
<description>&lt;MULTICOMP - SDCMF-10915W0T1 - CONNECTOR, SD, METAL COVER, SMT, R/A&lt;/b&gt;&lt;p&gt;
&lt;author&gt;Created by SamacSys&lt;/author&gt;</description>
<packages>
<package name="SDCMF-10915W0T1">
<description>&lt;b&gt;SDCMF-10915W0T1&lt;/b&gt;&lt;br&gt;
</description>
<smd name="1" x="6.875" y="23.92" dx="1.5" dy="1" layer="1" rot="R90"/>
<smd name="2" x="4.375" y="23.92" dx="1.5" dy="1" layer="1" rot="R90"/>
<smd name="3" x="1.875" y="23.92" dx="1.5" dy="1" layer="1" rot="R90"/>
<smd name="4" x="-0.625" y="23.92" dx="1.5" dy="1" layer="1" rot="R90"/>
<smd name="5" x="-3.125" y="23.92" dx="1.5" dy="1" layer="1" rot="R90"/>
<smd name="6" x="-5.625" y="23.92" dx="1.5" dy="1" layer="1" rot="R90"/>
<smd name="7" x="-8.125" y="23.92" dx="1.5" dy="1" layer="1" rot="R90"/>
<smd name="8" x="-9.75" y="23.92" dx="1.5" dy="1" layer="1" rot="R90"/>
<smd name="9" x="9.375" y="23.92" dx="1.5" dy="1" layer="1" rot="R90"/>
<smd name="10" x="-11.05" y="23.92" dx="1.5" dy="0.7" layer="1" rot="R90"/>
<smd name="11" x="-12.25" y="23.92" dx="1.5" dy="0.7" layer="1" rot="R90"/>
<smd name="12" x="-13.65" y="21.767" dx="2.8" dy="1.5" layer="1" rot="R90"/>
<smd name="13" x="11.45" y="21.5" dx="2.8" dy="1.5" layer="1" rot="R90"/>
<smd name="14" x="-13.65" y="0" dx="2.8" dy="1.5" layer="1" rot="R90"/>
<smd name="15" x="13.65" y="0" dx="2.8" dy="1.5" layer="1" rot="R90"/>
<pad name="16" x="-11.5" y="21.12" drill="1.15" diameter="1.75"/>
<pad name="17" x="9.5" y="20.77" drill="1.65" diameter="2.3"/>
<text x="-0.075" y="10.338" align="center" size="1.27" layer="25" rot="R0" >&gt;NAME</text>
<text x="-0.075" y="10.338" align="center" size="1.27" layer="27" rot="R0" >&gt;VALUE</text>
<wire x1="-13" y1="23.42" x2="13" y2="23.42" width="0.254" layer="51"/>
<wire x1="13" y1="23.42" x2="13" y2="-1.7" width="0.254" layer="51"/>
<wire x1="13" y1="-1.7" x2="-13" y2="-1.7" width="0.254" layer="51"/>
<wire x1="-13" y1="-1.7" x2="-13" y2="23.42" width="0.254" layer="51"/>
<wire x1="-13" y1="-1.7" x2="13" y2="-1.7" width="0.254" layer="21"/>
<wire x1="13" y1="23.42" x2="13" y2="1.729" width="0.254" layer="21"/>
<wire x1="13" y1="23.42" x2="10.233" y2="23.42" width="0.254" layer="21"/>
<circle x="7.476" y="25.673" radius="0.11316" width="0.254" layer="25"/>
<wire x1="-13" y1="20.015" x2="-13" y2="1.762" width="0.254" layer="21"/>
</package>
</packages>
<symbols>
<symbol name="SDCMF-10915W0T1">
<wire x1="5.08" y1="2.54" x2="15.24" y2="2.54" width="0.254" layer="94"/>
<wire x1="15.24" y1="-12.7" x2="15.24" y2="2.54" width="0.254" layer="94"/>
<wire x1="15.24" y1="-12.7" x2="5.08" y2="-12.7" width="0.254" layer="94"/>
<wire x1="5.08" y1="2.54" x2="5.08" y2="-12.7" width="0.254" layer="94"/>
<text x="16.51" y="7.62" align="center-left" size="1.778" layer="95">&gt;NAME</text>
<text x="16.51" y="5.08" align="center-left" size="1.778" layer="96">&gt;VALUE</text>
<pin name="1" x="0" y="0" length="middle" direction="io" rot="R0"/>
<pin name="3" x="0" y="-2.54" length="middle" direction="io" rot="R0"/>
<pin name="5" x="0" y="-5.08" length="middle" direction="io" rot="R0"/>
<pin name="7" x="0" y="-7.62" length="middle" direction="io" rot="R0"/>
<pin name="9" x="0" y="-10.16" length="middle" direction="io" rot="R0"/>
<pin name="2" x="20.32" y="0" length="middle" direction="io" rot="R180"/>
<pin name="4" x="20.32" y="-2.54" length="middle" direction="io" rot="R180"/>
<pin name="6" x="20.32" y="-5.08" length="middle" direction="io" rot="R180"/>
<pin name="8" x="20.32" y="-7.62" length="middle" direction="io" rot="R180"/>
</symbol>
</symbols>
<devicesets>
<deviceset name="SDCMF-10915W0T1" prefix="J">
<description>&lt;b&gt;MULTICOMP - SDCMF-10915W0T1 - CONNECTOR, SD, METAL COVER, SMT, R/A&lt;/b&gt;&lt;p&gt;
Source: &lt;a href="http://www.farnell.com/datasheets/12099.pdf"&gt; Datasheet &lt;/a&gt;</description>
<gates>
<gate name="G$1" symbol="SDCMF-10915W0T1" x="0" y="0"/>
</gates>
<devices>
<device name="" package="SDCMF-10915W0T1">
<connects>
<connect gate="G$1" pin="1" pad="1"/>
<connect gate="G$1" pin="2" pad="2"/>
<connect gate="G$1" pin="3" pad="3"/>
<connect gate="G$1" pin="4" pad="4"/>
<connect gate="G$1" pin="5" pad="5"/>
<connect gate="G$1" pin="6" pad="6"/>
<connect gate="G$1" pin="7" pad="7"/>
<connect gate="G$1" pin="8" pad="8"/>
<connect gate="G$1" pin="9" pad="9"/>
</connects>
<technologies>
<technology name="">
<attribute name="Manufacturer_Name" value="MULTICOMP" constant="no"/>
<attribute name="Manufacturer_Part_Number" value="SDCMF-10915W0T1" constant="no"/>
<attribute name="Mouser_Part_Number" value="" constant="no"/>
<attribute name="Mouser_Price-Stock" value="" constant="no"/>
<attribute name="RS_Part_Number" value="" constant="no"/>
<attribute name="RS_Price-Stock" value="" constant="no"/>
<attribute name="Description" value="MULTICOMP - SDCMF-10915W0T1 - CONNECTOR, SD, METAL COVER, SMT, R/A" constant="no"/>
<attribute name="Height" value="mm" constant="no"/>
</technology>
</technologies>
</device>
</devices>
</deviceset>
</devicesets>
</library>
</drawing>
</eagle>
