!PADS-POWERPCB-V9.5-METRIC! DESIGN DATABASE ASCII FILE 1.0
*PARTDECAL*  ITEMS

SDCMF-10915W0T1 M 7.4 -20.385 6 17 9 0 2
CLOSED 5 0.254 0 27
-13   23.42
13    23.42
13    -1.7 
-13   -1.7 
-13   23.42
OPEN 2 0.254 0 26
-13   -1.7 
13    -1.7 
OPEN 2 0.254 0 26
13    23.42
13    1.729
OPEN 2 0.254 0 26
13    23.42
10.233 23.42
CIRCLE 2 0.254 0 26
7.36284 25.673
7.58916 25.673
OPEN 2 0.254 0 26
-13   20.015
-13   1.762
VALUE -0.075 10.338 0 1 0.381 0.0381 N LEFT DOWN
Regular <Romansim Stroke Font>
Ref.Des.
VALUE -0.075 10.338 0 1 0.381 0.0381 N LEFT UP
Regular <Romansim Stroke Font>
Part Type
T6.875 23.92 6.875 23.92 1
T4.375 23.92 4.375 23.92 2
T1.875 23.92 1.875 23.92 3
T-0.625 23.92 -0.625 23.92 4
T-3.125 23.92 -3.125 23.92 5
T-5.625 23.92 -5.625 23.92 6
T-8.125 23.92 -8.125 23.92 7
T-9.75 23.92 -9.75 23.92 8
T9.375 23.92 9.375 23.92 9
T-11.05 23.92 -11.05 23.92 10
T-12.25 23.92 -12.25 23.92 11
T-13.65 21.767 -13.65 21.767 12
T11.45 21.5  11.45 21.5  13
T-13.65 0     -13.65 0     14
T13.65 0     13.65 0     15
T-11.5 21.12 -11.5 21.12 16
T9.5   20.77 9.5   20.77 17
PAD 0 3
-2 1 RF 90 1.5 0 0 0 N
-1 0   R  
0  0   R  
PAD 11 3
-2 0.7 RF 90 1.5 0 0 0 N
-1 0   R  
0  0   R  
PAD 10 3
-2 0.7 RF 90 1.5 0 0 0 N
-1 0   R  
0  0   R  
PAD 12 3
-2 1.5 RF 90 2.8 0 0 0 N
-1 0   R  
0  0   R  
PAD 13 3
-2 1.5 RF 90 2.8 0 0 0 N
-1 0   R  
0  0   R  
PAD 14 3
-2 1.5 RF 90 2.8 0 0 0 N
-1 0   R  
0  0   R  
PAD 15 3
-2 1.5 RF 90 2.8 0 0 0 N
-1 0   R  
0  0   R  
PAD 16 3
-2 1.75 R   1.15
-1 1.75 R  
0  1.75 R  
PAD 17 3
-2 2.3 R   1.65
-1 2.3 R  
0  2.3 R
*END*     OF ASCII OUTPUT FILE
