Added Parameter .PCBCheck= to Part L?
Added Parameter .PCBCheck= to Implementation PCBLIB 42H17
Added Parameter .PCBCheck= to Part U?
Added Parameter .PCBCheck= to Implementation PCBLIB TSSOP24
Added Parameter .PCBCheck= to Part L?
Added Parameter .PCBCheck= to Implementation PCBLIB 7427512
Added Parameter .PCBCheck= to Part U?
Added Parameter .PCBCheck= to Implementation PCBLIB LQFP48
Added Parameter .PCBCheck= to Implementation PCBLIB H2x10
Added Parameter .PCBCheck= to Part J?
Added Parameter .PCBCheck= to Part U?
Added Parameter .PCBCheck= to Implementation PCBLIB SOIC8
Added Parameter .PCBCheck= to Implementation PCBLIB SOIC8N
Added Parameter .PCBCheck= to Implementation PCBLIB B82790
Added Parameter .PCBCheck= to Part B?
Added Parameter .PCBCheck= to Part D?
Added Parameter .PCBCheck= to Implementation PCBLIB SOT23
Added Parameter .PCBCheck= to Implementation PCBLIB BR1225
Added Parameter .PCBCheck= to Part B?
Added Parameter .PCBCheck= to Part B?
Added Parameter .PCBCheck= to Implementation PCBLIB SOT143
Added Parameter .PCBCheck= to Part T?
Added Parameter .PCBCheck= to Implementation PCBLIB SOT23
Added Parameter .PCBCheck= to Implementation PCBLIB 1n
Added Parameter .PCBCheck= to Implementation PCBLIB 0402
Added Parameter .PCBCheck= to Implementation PCBLIB 0603
Added Parameter .PCBCheck= to Implementation PCBLIB 0805
Added Parameter .PCBCheck= to Implementation PCBLIB 1206
Added Parameter .PCBCheck= to Implementation PCBLIB 3216A
Added Parameter .PCBCheck= to Implementation PCBLIB CTANTALD
Added Parameter .PCBCheck= to Implementation PCBLIB EC2/5
Added Parameter .PCBCheck= to Implementation PCBLIB EC3.5/8
Added Parameter .PCBCheck= to Implementation PCBLIB EC5/10
Added Parameter .PCBCheck= to Part C?
Added Parameter .PCBCheck= to Implementation PCBLIB SC5/13
Added Parameter .PCBCheck= to Implementation PCBLIB SC5/21
Added Parameter .PCBCheck= to Implementation PCBLIB CTANTALC
Added Parameter .PCBCheck= to Implementation PCBLIB CTANTALD
Added Parameter .PCBCheck= to Implementation PCBLIB CTANTALD
Added Parameter .PCBCheck= to Part C?
Added Parameter .PCBCheck= to Part C?
Added Parameter .PCBCheck= to Implementation PCBLIB DRA9_F
Added Parameter .PCBCheck= to Part J?
Added Parameter .PCBCheck= to Implementation PCBLIB DRA9_M
Added Parameter .PCBCheck= to Implementation PCBLIB DRA9_M_RA
Added Parameter .PCBCheck= to Part J?
Added Parameter .PCBCheck= to Part K?
Added Parameter .PCBCheck= to Implementation PCBLIB SODIMM200EDGE
Added Parameter .PCBCheck= to Part D?
Added Parameter .PCBCheck= to Implementation PCBLIB DLW5BSN
Added Parameter .PCBCheck= to Part L?
Added Parameter .PCBCheck= to Implementation PCBLIB MELF
Added Parameter .PCBCheck= to Part U?
Added Parameter .PCBCheck= to Implementation PCBLIB uSOP8
Added Parameter .PCBCheck= to Part U?
Added Parameter .PCBCheck= to Implementation PCBLIB SOT23
Added Parameter .PCBCheck= to Implementation PCBLIB DVI_F_RA
Added Parameter .PCBCheck= to Part J?
Added Parameter .PCBCheck= to Implementation PCBLIB 0603
Added Parameter .PCBCheck= to Implementation PCBLIB 0805
Added Parameter .PCBCheck= to Part L?
Added Parameter .PCBCheck= to Implementation PCBLIB DQFN16
Added Parameter .PCBCheck= to Part U?
Added Parameter .PCBCheck= to Implementation PCBLIB H1x2
Added Parameter .PCBCheck= to Part H?
Added Parameter .PCBCheck= to Implementation PCBLIB H1x3
Added Parameter .PCBCheck= to Part H?
Added Parameter .PCBCheck= to Implementation PCBLIB H1x4
Added Parameter .PCBCheck= to Part H?
Added Parameter .PCBCheck= to Implementation PCBLIB H2x5
Added Parameter .PCBCheck= to Part H?
Added Parameter .PCBCheck= to Implementation PCBLIB H2x20
Added Parameter .PCBCheck= to Part H?
Added Parameter .PCBCheck= to Implementation PCBLIB H2x25
Added Parameter .PCBCheck= to Part H?
Added Parameter .PCBCheck= to Part P?
Added Parameter .PCBCheck= to Implementation PCBLIB 47041-0001
Added Parameter .PCBCheck= to Implementation PCBLIB 0603
Added Parameter .PCBCheck= to Implementation PCBLIB 0805
Added Parameter .PCBCheck= to Implementation PCBLIB 0805
Added Parameter .PCBCheck= to Part LH?
Added Parameter .PCBCheck= to Implementation PCBLIB LED HOLDER 3
Added Parameter .PCBCheck= to Part LD?
Added Parameter .PCBCheck= to Part L?
Added Parameter .PCBCheck= to Implementation PCBLIB L127_NS
Added Parameter .PCBCheck= to Part U?
Added Parameter .PCBCheck= to Implementation PCBLIB SOT223
Added Parameter .PCBCheck= to Part U?
Added Parameter .PCBCheck= to Implementation PCBLIB TO263_7
Added Parameter .PCBCheck= to Part U?
Added Parameter .PCBCheck= to Implementation PCBLIB SOT23
Added Parameter .PCBCheck= to Part U?
Added Parameter .PCBCheck= to Implementation PCBLIB SOT23-5
Added Parameter .PCBCheck= to Part U?
Added Parameter .PCBCheck= to Implementation PCBLIB SOIC16N
Added Parameter .PCBCheck= to Implementation PCBLIB TSSOP16
Added Parameter .PCBCheck= to Part U?
Added Parameter .PCBCheck= to Implementation PCBLIB SOIC18W
Added Parameter .PCBCheck= to Part U?
Added Parameter .PCBCheck= to Implementation PCBLIB SOIC8N
Added Parameter .PCBCheck= to Part J?
Added Parameter .PCBCheck= to Implementation PCBLIB uSD10
Added Parameter .PCBCheck= to Part J?
Added Parameter .PCBCheck= to Implementation PCBLIB MINI_USB_AB
Added Parameter .PCBCheck= to Part J?
Added Parameter .PCBCheck= to Implementation PCBLIB SDCMF-109
Added Parameter .PCBCheck= to Part U?
Added Parameter .PCBCheck= to Implementation PCBLIB TSSOP14
Added Parameter .PCBCheck= to Part U?
Added Parameter .PCBCheck= to Implementation PCBLIB SC70
Added Parameter .PCBCheck= to Part C?
Added Parameter .PCBCheck= to Implementation SI L
Added Parameter .PCBCheck= to Implementation PCBLIB NFM18P
Added Parameter .PCBCheck= to Part TS?
Added Parameter .PCBCheck= to Implementation PCBLIB SOT23
Added Parameter .PCBCheck= to Part Y?
Added Parameter .PCBCheck= to Implementation PCBLIB JO75
Added Parameter .PCBCheck= to Implementation PCBLIB BUTTON_KSM61X
Added Parameter .PCBCheck= to Implementation PCBLIB BUTTON_RA_NS
Added Parameter .PCBCheck= to Part SW?
Added Parameter .PCBCheck= to Part U?
Added Parameter .PCBCheck= to Implementation PCBLIB SOIC8N
Added Parameter .PCBCheck= to Part U?
Added Parameter .PCBCheck= to Implementation PCBLIB TSSOP8
Added Parameter .PCBCheck= to Part U?
Added Parameter .PCBCheck= to Implementation PCBLIB SOIC8N
Added Parameter .PCBCheck= to Implementation PCBLIB TSSOP8
Added Parameter .PCBCheck= to Part J?
Added Parameter .PCBCheck= to Implementation PCBLIB POWER_JACK_5.5/2.1MM_NS
Added Parameter .PCBCheck= to Implementation PCBLIB 0402
Added Parameter .PCBCheck= to Implementation PCBLIB 0603
Added Parameter .PCBCheck= to Part R?
Added Parameter .PCBCheck= to Part J?
Added Parameter .PCBCheck= to Implementation PCBLIB RJ45LED
Added Parameter .PCBCheck= to Part RN?
Added Parameter .PCBCheck= to Implementation PCBLIB RX4_NS
Added Parameter .PCBCheck= to Part J?
Added Parameter .PCBCheck= to Implementation PCBLIB SCI8
Added Parameter .PCBCheck= to Implementation PCBLIB SCI8F
Added Parameter .PCBCheck= to Part U?
Added Parameter .PCBCheck= to Implementation PCBLIB SFH511x
Added Parameter .PCBCheck= to Part U?
Added Parameter .PCBCheck= to Implementation PCBLIB QFN32
Added Parameter .PCBCheck= to Part D?
Added Parameter .PCBCheck= to Implementation PCBLIB SMB
Added Parameter .PCBCheck= to Part U?
Added Parameter .PCBCheck= to Implementation PCBLIB QFN20
Added Parameter .PCBCheck= to Part J?
Added Parameter .PCBCheck= to Implementation PCBLIB SJ35_NS
Added Parameter .PCBCheck= to Part U?
Added Parameter .PCBCheck= to Implementation PCBLIB TSSOP14
Added Parameter .PCBCheck= to Implementation PCBLIB SOIC8
Added Parameter .PCBCheck= to Part U?
Added Parameter .PCBCheck= to Implementation PCBLIB LQFP32
Added Parameter .PCBCheck= to Part TP?
Added Parameter .PCBCheck= to Implementation SI Test
Added Parameter .PCBCheck= to Implementation PCBLIB TESTPOINT
Added Parameter .PCBCheck= to Implementation PCBLIB TESTPOINT_2mm
Added Parameter .PCBCheck= to Part U?
Added Parameter .PCBCheck= to Implementation PCBLIB TDFU4101
Added Parameter .PCBCheck= to Part U?
Added Parameter .PCBCheck= to Implementation PCBLIB TQFP64
Added Parameter .PCBCheck= to Part TR?
Added Parameter .PCBCheck= to Implementation PCBLIB SOIC16M
Added Parameter .PCBCheck= to Part U?
Added Parameter .PCBCheck= to Implementation PCBLIB SOT23-5
Added Parameter .PCBCheck= to Part U?
Added Parameter .PCBCheck= to Implementation PCBLIB TSSOP16
Added Parameter .PCBCheck= to Part U?
Added Parameter .PCBCheck= to Implementation PCBLIB TSSOP20
Added Parameter .PCBCheck= to Part U?
Added Parameter .PCBCheck= to Implementation PCBLIB LQFP48
Added Parameter .PCBCheck= to Part J?
Added Parameter .PCBCheck= to Implementation PCBLIB USB-2A
Added Parameter .PCBCheck= to Part U?
Added Parameter .PCBCheck= to Implementation PCBLIB QFN36
Added Parameter .PCBCheck= to Implementation PCBLIB HC494H
Added Parameter .PCBCheck= to Part X?
Added Parameter .PCBCheck= to Implementation PCBLIB JTX410
Added Parameter .PCBCheck= to Implementation PCBLIB JXS53
Added Parameter .PCBCheck= to Implementation PCBLIB SMQ32S
Added Parameter .PCBCheck= to Implementation PCBLIB DO214AA
Added Parameter .PCBCheck= to Part ZD?
Added Parameter .PCBCheck= to Implementation PCBLIB SMB
Added Parameter .SCHCheck= to Part L?
Added Parameter .SCHCheck= to Implementation PCBLIB 42H17
Added Parameter .SCHCheck= to Part U?
Added Parameter .SCHCheck= to Implementation PCBLIB TSSOP24
Added Parameter .SCHCheck= to Part L?
Added Parameter .SCHCheck= to Implementation PCBLIB 7427512
Added Parameter .SCHCheck= to Part U?
Added Parameter .SCHCheck= to Implementation PCBLIB LQFP48
Added Parameter .SCHCheck= to Implementation PCBLIB H2x10
Added Parameter .SCHCheck= to Part J?
Added Parameter .SCHCheck= to Part U?
Added Parameter .SCHCheck= to Implementation PCBLIB SOIC8
Added Parameter .SCHCheck= to Implementation PCBLIB SOIC8N
Added Parameter .SCHCheck= to Implementation PCBLIB B82790
Added Parameter .SCHCheck= to Part B?
Added Parameter .SCHCheck= to Part D?
Added Parameter .SCHCheck= to Implementation PCBLIB SOT23
Added Parameter .SCHCheck= to Implementation PCBLIB BR1225
Added Parameter .SCHCheck= to Part B?
Added Parameter .SCHCheck= to Part B?
Added Parameter .SCHCheck= to Implementation PCBLIB SOT143
Added Parameter .SCHCheck= to Part T?
Added Parameter .SCHCheck= to Implementation PCBLIB SOT23
Added Parameter .SCHCheck= to Implementation PCBLIB 1n
Added Parameter .SCHCheck= to Implementation PCBLIB 0402
Added Parameter .SCHCheck= to Implementation PCBLIB 0603
Added Parameter .SCHCheck= to Implementation PCBLIB 0805
Added Parameter .SCHCheck= to Implementation PCBLIB 1206
Added Parameter .SCHCheck= to Implementation PCBLIB 3216A
Added Parameter .SCHCheck= to Implementation PCBLIB CTANTALD
Added Parameter .SCHCheck= to Implementation PCBLIB EC2/5
Added Parameter .SCHCheck= to Implementation PCBLIB EC3.5/8
Added Parameter .SCHCheck= to Implementation PCBLIB EC5/10
Added Parameter .SCHCheck= to Part C?
Added Parameter .SCHCheck= to Implementation PCBLIB SC5/13
Added Parameter .SCHCheck= to Implementation PCBLIB SC5/21
Added Parameter .SCHCheck= to Implementation PCBLIB CTANTALC
Added Parameter .SCHCheck= to Implementation PCBLIB CTANTALD
Added Parameter .SCHCheck= to Implementation PCBLIB CTANTALD
Added Parameter .SCHCheck= to Part C?
Added Parameter .SCHCheck= to Part C?
Added Parameter .SCHCheck= to Implementation PCBLIB DRA9_F
Added Parameter .SCHCheck= to Part J?
Added Parameter .SCHCheck= to Implementation PCBLIB DRA9_M
Added Parameter .SCHCheck= to Implementation PCBLIB DRA9_M_RA
Added Parameter .SCHCheck= to Part J?
Added Parameter .SCHCheck= to Part K?
Added Parameter .SCHCheck= to Implementation PCBLIB SODIMM200EDGE
Added Parameter .SCHCheck= to Part D?
Added Parameter .SCHCheck= to Implementation PCBLIB DLW5BSN
Added Parameter .SCHCheck= to Part L?
Added Parameter .SCHCheck= to Implementation PCBLIB MELF
Added Parameter .SCHCheck= to Part U?
Added Parameter .SCHCheck= to Implementation PCBLIB uSOP8
Added Parameter .SCHCheck= to Part U?
Added Parameter .SCHCheck= to Implementation PCBLIB SOT23
Added Parameter .SCHCheck= to Implementation PCBLIB DVI_F_RA
Added Parameter .SCHCheck= to Part J?
Added Parameter .SCHCheck= to Implementation PCBLIB 0603
Added Parameter .SCHCheck= to Implementation PCBLIB 0805
Added Parameter .SCHCheck= to Part L?
Added Parameter .SCHCheck= to Implementation PCBLIB DQFN16
Added Parameter .SCHCheck= to Part U?
Added Parameter .SCHCheck= to Implementation PCBLIB H1x2
Added Parameter .SCHCheck= to Part H?
Added Parameter .SCHCheck= to Implementation PCBLIB H1x3
Added Parameter .SCHCheck= to Part H?
Added Parameter .SCHCheck= to Implementation PCBLIB H1x4
Added Parameter .SCHCheck= to Part H?
Added Parameter .SCHCheck= to Implementation PCBLIB H2x5
Added Parameter .SCHCheck= to Part H?
Added Parameter .SCHCheck= to Implementation PCBLIB H2x20
Added Parameter .SCHCheck= to Part H?
Added Parameter .SCHCheck= to Implementation PCBLIB H2x25
Added Parameter .SCHCheck= to Part H?
Added Parameter .SCHCheck= to Part P?
Added Parameter .SCHCheck= to Implementation PCBLIB 47041-0001
Added Parameter .SCHCheck= to Implementation PCBLIB 0603
Added Parameter .SCHCheck= to Implementation PCBLIB 0805
Added Parameter .SCHCheck= to Implementation PCBLIB 0805
Added Parameter .SCHCheck= to Part LH?
Added Parameter .SCHCheck= to Implementation PCBLIB LED HOLDER 3
Added Parameter .SCHCheck= to Part LD?
Added Parameter .SCHCheck= to Part L?
Added Parameter .SCHCheck= to Implementation PCBLIB L127_NS
Added Parameter .SCHCheck= to Part U?
Added Parameter .SCHCheck= to Implementation PCBLIB SOT223
Added Parameter .SCHCheck= to Part U?
Added Parameter .SCHCheck= to Implementation PCBLIB TO263_7
Added Parameter .SCHCheck= to Part U?
Added Parameter .SCHCheck= to Implementation PCBLIB SOT23
Added Parameter .SCHCheck= to Part U?
Added Parameter .SCHCheck= to Implementation PCBLIB SOT23-5
Added Parameter .SCHCheck= to Part U?
Added Parameter .SCHCheck= to Implementation PCBLIB SOIC16N
Added Parameter .SCHCheck= to Implementation PCBLIB TSSOP16
Added Parameter .SCHCheck= to Part U?
Added Parameter .SCHCheck= to Implementation PCBLIB SOIC18W
Added Parameter .SCHCheck= to Part U?
Added Parameter .SCHCheck= to Implementation PCBLIB SOIC8N
Added Parameter .SCHCheck= to Part J?
Added Parameter .SCHCheck= to Implementation PCBLIB uSD10
Added Parameter .SCHCheck= to Part J?
Added Parameter .SCHCheck= to Implementation PCBLIB MINI_USB_AB
Added Parameter .SCHCheck= to Part J?
Added Parameter .SCHCheck= to Implementation PCBLIB SDCMF-109
Added Parameter .SCHCheck= to Part U?
Added Parameter .SCHCheck= to Implementation PCBLIB TSSOP14
Added Parameter .SCHCheck= to Part U?
Added Parameter .SCHCheck= to Implementation PCBLIB SC70
Added Parameter .SCHCheck= to Part C?
Added Parameter .SCHCheck= to Implementation SI L
Added Parameter .SCHCheck= to Implementation PCBLIB NFM18P
Added Parameter .SCHCheck= to Part TS?
Added Parameter .SCHCheck= to Implementation PCBLIB SOT23
Added Parameter .SCHCheck= to Part Y?
Added Parameter .SCHCheck= to Implementation PCBLIB JO75
Added Parameter .SCHCheck= to Implementation PCBLIB BUTTON_KSM61X
Added Parameter .SCHCheck= to Implementation PCBLIB BUTTON_RA_NS
Added Parameter .SCHCheck= to Part SW?
Added Parameter .SCHCheck= to Part U?
Added Parameter .SCHCheck= to Implementation PCBLIB SOIC8N
Added Parameter .SCHCheck= to Part U?
Added Parameter .SCHCheck= to Implementation PCBLIB TSSOP8
Added Parameter .SCHCheck= to Part U?
Added Parameter .SCHCheck= to Implementation PCBLIB SOIC8N
Added Parameter .SCHCheck= to Implementation PCBLIB TSSOP8
Added Parameter .SCHCheck= to Part J?
Added Parameter .SCHCheck= to Implementation PCBLIB POWER_JACK_5.5/2.1MM_NS
Added Parameter .SCHCheck= to Implementation PCBLIB 0402
Added Parameter .SCHCheck= to Implementation PCBLIB 0603
Added Parameter .SCHCheck= to Part R?
Added Parameter .SCHCheck= to Part J?
Added Parameter .SCHCheck= to Implementation PCBLIB RJ45LED
Added Parameter .SCHCheck= to Part RN?
Added Parameter .SCHCheck= to Implementation PCBLIB RX4_NS
Added Parameter .SCHCheck= to Part J?
Added Parameter .SCHCheck= to Implementation PCBLIB SCI8
Added Parameter .SCHCheck= to Implementation PCBLIB SCI8F
Added Parameter .SCHCheck= to Part U?
Added Parameter .SCHCheck= to Implementation PCBLIB SFH511x
Added Parameter .SCHCheck= to Part U?
Added Parameter .SCHCheck= to Implementation PCBLIB QFN32
Added Parameter .SCHCheck= to Part D?
Added Parameter .SCHCheck= to Implementation PCBLIB SMB
Added Parameter .SCHCheck= to Part U?
Added Parameter .SCHCheck= to Implementation PCBLIB QFN20
Added Parameter .SCHCheck= to Part J?
Added Parameter .SCHCheck= to Implementation PCBLIB SJ35_NS
Added Parameter .SCHCheck= to Part U?
Added Parameter .SCHCheck= to Implementation PCBLIB TSSOP14
Added Parameter .SCHCheck= to Implementation PCBLIB SOIC8
Added Parameter .SCHCheck= to Part U?
Added Parameter .SCHCheck= to Implementation PCBLIB LQFP32
Added Parameter .SCHCheck= to Part TP?
Added Parameter .SCHCheck= to Implementation SI Test
Added Parameter .SCHCheck= to Implementation PCBLIB TESTPOINT
Added Parameter .SCHCheck= to Implementation PCBLIB TESTPOINT_2mm
Added Parameter .SCHCheck= to Part U?
Added Parameter .SCHCheck= to Implementation PCBLIB TDFU4101
Added Parameter .SCHCheck= to Part U?
Added Parameter .SCHCheck= to Implementation PCBLIB TQFP64
Added Parameter .SCHCheck= to Part TR?
Added Parameter .SCHCheck= to Implementation PCBLIB SOIC16M
Added Parameter .SCHCheck= to Part U?
Added Parameter .SCHCheck= to Implementation PCBLIB SOT23-5
Added Parameter .SCHCheck= to Part U?
Added Parameter .SCHCheck= to Implementation PCBLIB TSSOP16
Added Parameter .SCHCheck= to Part U?
Added Parameter .SCHCheck= to Implementation PCBLIB TSSOP20
Added Parameter .SCHCheck= to Part U?
Added Parameter .SCHCheck= to Implementation PCBLIB LQFP48
Added Parameter .SCHCheck= to Part J?
Added Parameter .SCHCheck= to Implementation PCBLIB USB-2A
Added Parameter .SCHCheck= to Part U?
Added Parameter .SCHCheck= to Implementation PCBLIB QFN36
Added Parameter .SCHCheck= to Implementation PCBLIB HC494H
Added Parameter .SCHCheck= to Part X?
Added Parameter .SCHCheck= to Implementation PCBLIB JTX410
Added Parameter .SCHCheck= to Implementation PCBLIB JXS53
Added Parameter .SCHCheck= to Implementation PCBLIB SMQ32S
Added Parameter .SCHCheck= to Implementation PCBLIB DO214AA
Added Parameter .SCHCheck= to Implementation PCBLIB SMB
